1.7192561626434326,158
1.7270982265472412,162
1.7311482429504395,161
1.7353787422180176,157
1.743434190750122,163
1.7476074695587158,157
1.751777172088623,160
1.7558026313781738,161
1.7642548084259033,156
1.7681734561920166,162
1.7721900939941406,160
1.7807793617248535,160
1.7849137783050537,163
1.788599967956543,157
1.7927241325378418,162
1.8012466430664062,160
1.8049869537353516,144
1.8091301918029785,162
1.8176474571228027,156
1.8213260173797607,162
1.825392723083496,160
1.8296027183532715,157
1.8376507759094238,161
1.8419158458709717,158
1.8459563255310059,165
1.8541007041931152,161
1.8582212924957275,157
1.862389326095581,162
1.8668766021728516,154
1.8745601177215576,161
1.8787217140197754,160
1.8832380771636963,156
1.8909416198730469,163
1.8951148986816406,158
1.8991775512695312,159
1.9032797813415527,164
1.9114487171173096,157
1.9157404899597168,162
1.919640302658081,159
1.9279122352600098,159
1.9323906898498535,162
1.9361541271209717,157
1.9403572082519531,163
1.9484100341796875,160
1.9528605937957764,158
1.956718921661377,162
1.9648256301879883,158
1.9689316749572754,161
1.9730911254882812,159
1.9771857261657715,155
1.985400915145874,162
1.989323377609253,157
1.9933347702026367,162
2.001537561416626,161
2.005636692047119,157
2.010037422180176,163
2.0138378143310547,159
2.0219180583953857,162
2.026186943054199,161
2.030409812927246,156
2.038450241088867,162
2.0425820350646973,159
2.0468130111694336,159
2.050902843475342,162
2.058931827545166,155
2.063246488571167,163
2.067356586456299,159
2.0753049850463867,160
2.07938551902771,163
2.0834579467773438,157
2.0875840187072754,163
2.0956878662109375,159
2.0998425483703613,158
2.1039278507232666,162
2.112325429916382,157
2.1162452697753906,162
2.120309829711914,160
2.124511241912842,156
2.1324963569641113,161
2.1366307735443115,158
2.1408491134643555,162
2.148942708969116,161
2.153074264526367,157
2.1571877002716064,162
2.161295175552368,159
2.169555902481079,161
2.1737060546875,161
2.1778440475463867,156
2.185910701751709,162
2.1900627613067627,158
2.1942923069000244,161
2.1983511447906494,162
2.2064342498779297,157
2.210594654083252,162
2.2148969173431396,159
2.2228024005889893,159
2.226952075958252,161
2.2310431003570557,154
2.235135078430176,162
2.243180751800537,160
2.247553825378418,157
2.251465320587158,162
2.2596094608306885,148
2.263695001602173,162
2.267768144607544,162
2.271864652633667,157
2.280092716217041,160
2.28421950340271,157
2.2883315086364746,160
2.296757936477661,161
2.3005967140197754,171
2.3046867847442627,165
2.3087730407714844,158
2.3169069290161133,162
2.321035146713257,162
2.3252816200256348,157
2.333343744277954,163
2.337395191192627,160
2.341521739959717,160
2.3456952571868896,168
2.3537087440490723,157
2.357855796813965,162
2.362288236618042,160
2.3700709342956543,157
2.374298334121704,161
2.3784103393554688,158
2.3824880123138428,163
2.390667200088501,159
2.3947560787200928,158
2.3988382816314697,162
2.4070522785186768,158
2.41115403175354,162
2.415236711502075,161
2.4193215370178223,157
2.427467107772827,163
2.4316866397857666,158
2.4358232021331787,170
2.443927764892578,162
2.4480273723602295,156
2.4521732330322266,162
2.456204652786255,159
2.4644222259521484,162
2.4685466289520264,161
2.4726195335388184,156
2.4810545444488525,164
2.4849374294281006,159
2.4889349937438965,161
2.493161916732788,161
2.501256227493286,157
2.505314350128174,163
2.50946044921875,160
2.517606258392334,160
2.5217068195343018,161
2.5258584022521973,155
2.530317783355713,162
2.538137197494507,160
2.5421860218048096,158
2.5466976165771484,175
2.5544440746307373,158
2.55863094329834,163
2.562716484069824,161
2.566847801208496,157
2.574923276901245,162
2.5790820121765137,159
2.583212375640869,161
2.5913469791412354,161
2.5954575538635254,156
2.59952712059021,162
2.603698968887329,158
2.6118416786193848,159
2.6159167289733887,161
2.620004653930664,157
2.6282007694244385,162
2.6322693824768066,165
2.6364054679870605,158
2.640460252761841,164
2.6485486030578613,156
2.6526553630828857,163
2.656794786453247,160
2.6649560928344727,159
2.6690480709075928,162
2.6731629371643066,158
2.677274465560913,162
2.685547113418579,161
2.6895575523376465,157
2.6937382221221924,162
2.702009916305542,158
2.7059433460235596,162
2.710176467895508,160
2.7143640518188477,156
2.7222847938537598,162
2.726489543914795,159
2.7305691242218018,162
2.738675594329834,160
2.742804765701294,157
2.7469375133514404,163
2.7510292530059814,159
2.7592544555664062,159
2.763472080230713,162
2.767679452896118,164
2.775775194168091,164
2.7798893451690674,160
2.783926010131836,161
2.78810715675354,162
2.7962076663970947,157
2.8002984523773193,165
2.8043675422668457,160
2.81255841255188,159
2.8165831565856934,162
2.8206865787506104,157
2.8247926235198975,163
2.8329930305480957,160
2.837002992630005,158
2.8411824703216553,162
2.8493964672088623,134
2.8535003662109375,163
2.857542037963867,161
2.862048625946045,157
2.8697850704193115,162
2.873922824859619,159
2.878110408782959,162
2.8862290382385254,161
2.8902976512908936,156
2.8944709300994873,160
2.8985400199890137,158
2.9066970348358154,160
2.910839796066284,161
2.9149279594421387,155
2.9230709075927734,162
2.927189588546753,158
2.9312474727630615,159
2.935420274734497,163
2.943535566329956,157
2.9477250576019287,162
2.951828956604004,159
2.9599878787994385,160
2.964012622833252,162
2.968149423599243,157
2.9721999168395996,161
2.9804201126098633,160
2.984513759613037,158
2.9885849952697754,164
2.996826648712158,176
3.0009756088256836,161
3.0051207542419434,161
3.009255886077881,156
3.0174198150634766,163
3.021439552307129,159
3.025646924972534,163
3.033768653869629,161
3.0378847122192383,159
3.042006015777588,162
3.046092987060547,158
3.0540881156921387,160
3.0581862926483154,163
3.0627634525299072,157
3.0704283714294434,162
3.0746748447418213,161
3.0787343978881836,158
3.0828187465667725,162
3.09093976020813,157
3.0950725078582764,163
3.0992095470428467,160
3.107311964035034,157
3.111405372619629,162
3.115602493286133,158
3.1196835041046143,162
3.1277987957000732,163
3.1319820880889893,158
3.1360554695129395,162
3.1442363262176514,158
3.148635149002075,161
3.152421474456787,180
3.156477212905884,156
3.165057420730591,163
3.1687982082366943,159
3.1728737354278564,162
3.181159257888794,156
3.185211658477783,158
3.1892688274383545,162
3.1934118270874023,160
3.2015931606292725,160
3.2056310176849365,162
3.2097954750061035,156
3.2179176807403564,161
3.2219903469085693,160
3.2261757850646973,159
3.2305586338043213,162
3.2383596897125244,157
3.242520809173584,163
3.246948719024658,161
3.2547812461853027,158
3.258901357650757,162
3.263019561767578,158
3.267129898071289,162
3.2752130031585693,160
3.2793567180633545,158
3.2834455966949463,161
3.2916066646575928,158
3.295738697052002,162
3.299816846847534,164
3.303960084915161,155
3.3121910095214844,162
3.3162362575531006,159
3.320545196533203,162
3.32857084274292,159
3.332663059234619,156
3.3367722034454346,162
3.3408398628234863,159
3.349306106567383,162
3.3531899452209473,163
3.357302665710449,156
3.3654472827911377,163
3.369600296020508,160
3.3736824989318848,158
3.377734422683716,162
3.385952949523926,154
3.390108823776245,166
3.3941831588745117,160
3.4022905826568604,157
3.4064016342163086,162
3.41050386428833,158
3.4151158332824707,162
3.4227850437164307,160
3.4268388748168945,158
3.4313840866088867,162
3.439161539077759,161
3.4432907104492188,161
3.447380781173706,161
3.451484441757202,155
3.459571123123169,162
3.4637532234191895,160
3.467801570892334,161
3.476025104522705,162
3.480191469192505,156
3.484255313873291,162
3.488319158554077,160
3.4964957237243652,161
3.5005733966827393,162
3.504690170288086,157
3.5129411220550537,162
3.5169575214385986,161
3.5210835933685303,158
3.5252325534820557,179
3.5333783626556396,157
3.5374722480773926,161
3.541611433029175,160
3.55004620552063,158
3.553898572921753,163
3.5580153465270996,158
3.5620408058166504,155
3.5701849460601807,161
3.5743465423583984,156
3.5784239768981934,161
3.586599111557007,159
3.5907466411590576,161
3.594808578491211,162
3.5993854999542236,156
3.6070570945739746,163
3.611222505569458,159
3.615182399749756,160
3.6234054565429688,163
3.6275758743286133,155
3.631749391555786,157
3.635826826095581,160
3.6439895629882812,160
3.648153305053711,161
3.6522374153137207,156
3.660278081893921,163
3.6645164489746094,160
3.668531894683838,158
3.6725611686706543,162
3.6811583042144775,158
3.6848528385162354,163
3.6889710426330566,162
3.6973371505737305,156
3.701246738433838,162
3.705307960510254,157
3.70951247215271,162
3.7175543308258057,161
3.7216708660125732,156
3.7258245944976807,163
3.733973979949951,159
3.7380714416503906,159
3.7422850131988525,160
3.746774673461914,156
3.7544000148773193,162
3.758561849594116,158
3.7627029418945312,160
3.7707791328430176,161
3.77498459815979,155
3.7794289588928223,162
3.7831172943115234,157
3.791287899017334,160
3.795349359512329,161
3.799532175064087,156
3.807689905166626,163
3.8118436336517334,159
3.8160035610198975,158
3.820066213607788,161
3.828242778778076,157
3.8323709964752197,162
3.8365728855133057,160
3.8446309566497803,157
3.8491218090057373,138
3.852900981903076,157
3.8569302558898926,162
3.8650882244110107,162
3.8691930770874023,156
3.873305082321167,164
3.881469488143921,160
3.88558292388916,162
3.8896570205688477,161
3.893787384033203,157
3.901930093765259,162
3.906109094619751,159
3.910271406173706,160
3.9183151721954346,162
3.922438383102417,151
3.926543951034546,162
3.930685043334961,160
3.9387786388397217,159
3.942885637283325,161
3.9470508098602295,159
3.9551618099212646,162
3.9592761993408203,161
3.9634125232696533,157
3.9674885272979736,161
3.975687026977539,158
3.979818820953369,162
3.9838707447052,161
3.9920644760131836,157
3.9961843490600586,163
4.00019383430481,158
4.0043206214904785,160
4.012418508529663,162
4.016525983810425,139
4.020632743835449,163
4.028794765472412,158
4.032907247543335,161
4.036992073059082,164
4.04111385345459,156
4.049253463745117,162
4.053348779678345,160
4.057478904724121,160
4.065796136856079,163
4.069808483123779,157
4.073981523513794,161
4.078064203262329,162
4.086272954940796,156
4.090282201766968,161
4.094460487365723,156
4.1026294231414795,179
4.106626272201538,159
4.110834836959839,156
4.114904880523682,161
4.123023986816406,157
4.127225399017334,163
4.13123631477356,161
4.139382362365723,157
4.143488168716431,163
4.147950172424316,158
4.1518330574035645,162
4.1599016189575195,161
4.164251089096069,155
4.168176889419556,162
4.176384687423706,158
4.18048620223999,162
4.1845703125,161
4.188704490661621,156
4.1971752643585205,163
4.200950622558594,157
4.205061674118042,160
4.21338677406311,161
4.217344284057617,157
4.221688747406006,163
4.22560977935791,159
4.2336931228637695,158
4.237773418426514,162
4.241947412490845,156
4.250076532363892,162
4.254194974899292,160
4.258350849151611,158
4.26244854927063,163
4.2705442905426025,158
4.274684906005859,164
4.278809070587158,164
4.286911249160767,157
4.29110312461853,163
4.295232534408569,177
4.2994606494903564,161
4.3073859214782715,160
4.311567068099976,157
4.315629720687866,162
4.32377552986145,159
4.328000783920288,160
4.33199143409729,162
4.336133003234863,157
4.344258069992065,164
4.3487937450408936,160
4.352587461471558,164
4.360689878463745,163
4.364791393280029,157
4.36896014213562,162
4.373021602630615,159
4.381167411804199,159
4.385208606719971,162
4.389347553253174,157
4.393496513366699,162
4.401687860488892,161
4.4056761264801025,155
4.409931182861328,163
4.418099641799927,158
4.422088623046875,162
4.426213264465332,160
4.434427499771118,158
4.438457012176514,167
4.442645311355591,159
4.446748495101929,162
4.454792261123657,161
4.458988189697266,156
4.463094472885132,163
4.471205711364746,158
4.475437641143799,160
4.4794981479644775,162
4.483592748641968,156
4.49170708656311,163
4.4958038330078125,160
4.499885320663452,159
4.508097887039185,161
4.512197732925415,157
4.516251087188721,163
4.520371675491333,160
4.52856969833374,159
4.532630681991577,162
4.5367913246154785,157
4.540883541107178,164
4.549288272857666,160
4.55328106880188,156
4.557225465774536,163
4.565845966339111,158
4.56967306137085,163
4.573680877685547,161
4.577807188034058,157
4.585983037948608,161
4.589972257614136,159
4.594153165817261,161
4.602218151092529,161
4.6064276695251465,157
4.610482692718506,163
4.615061521530151,159
4.62282133102417,160
4.627028942108154,162
4.6310858726501465,155
4.63916540145874,178
4.643226146697998,159
4.647408723831177,159
4.651424169540405,162
4.659656763076782,157
4.663785457611084,164
4.667830228805542,160
4.6760735511779785,160
4.680148124694824,162
4.684281826019287,156
4.688378572463989,162
4.696887016296387,161
4.70061182975769,157
4.704764127731323,161
4.71287202835083,157
4.716979742050171,169
4.7211620807647705,160
4.72529149055481,156
4.733356475830078,162
4.737500905990601,174
4.741570234298706,161
4.749628782272339,161
4.753746509552002,156
4.757842779159546,163
4.76194429397583,159
4.770235300064087,160
4.774274826049805,162
4.77845573425293,156
4.786518335342407,182
4.790639638900757,158
4.795130014419556,157
4.798919677734375,161
4.8070642948150635,164
4.811197280883789,164
4.81528115272522,160
4.823331356048584,158
4.827568531036377,163
4.831641912460327,158
4.835771799087524,163
4.844047546386719,160
4.8482842445373535,157
4.852264881134033,163
4.860294342041016,158
4.8645179271698,161
4.868579149246216,161
4.872727155685425,155
4.880880355834961,163
4.884900093078613,158
4.889049530029297,160
4.897220611572266,168
4.901253700256348,156
4.905411720275879,163
4.909533977508545,160
4.917646169662476,160
4.921766042709351,163
4.925909519195557,157
4.93424129486084,162
4.938229322433472,160
4.942258358001709,157
4.946423292160034,162
4.954542636871338,156
4.958639621734619,163
4.962791204452515,156
4.970975160598755,157
4.975118398666382,147
4.979211330413818,157
4.983232259750366,164
4.991386890411377,161
4.99554967880249,156
4.999665975570679,162
5.007803916931152,159
5.011947154998779,161
5.016015529632568,161
5.02010703086853,155
5.0283026695251465,163
5.032423734664917,157
5.036404371261597,160
5.0446672439575195,163
5.048807621002197,156
5.053103446960449,162
5.056971311569214,159
5.065327167510986,160
5.069321393966675,161
5.073317289352417,155
5.081883430480957,163
5.085639715194702,159
5.089738607406616,159
5.093851566314697,161
5.1019814014434814,154
5.106102705001831,162
5.110337257385254,160
5.118335008621216,192
5.12248158454895,167
5.126520395278931,158
5.1310648918151855,162
5.13886570930481,161
5.14298677444458,157
5.147148609161377,158
5.155245542526245,152
5.159353017807007,161
5.163487195968628,162
5.167562961578369,156
5.175665616989136,163
5.179840326309204,159
5.183913230895996,160
5.1920998096466064,167
5.196274995803833,158
5.200287580490112,163
5.204384803771973,159
5.21261739730835,158
5.216653823852539,163
5.220787525177002,156
5.228971481323242,162
5.233042478561401,160
5.237133264541626,158
5.241214275360107,162
5.249843120574951,157
5.253814935684204,162
5.2576210498809814,161
5.265791893005371,157
5.269838333129883,163
5.273977756500244,158
5.278146505355835,161
5.286284446716309,161
5.290349960327148,157
5.294525384902954,161
5.302690267562866,159
5.30670952796936,162
5.310896158218384,161
5.314941167831421,155
5.323200702667236,162
5.327224493026733,159
5.331297397613525,159
5.33941650390625,162
5.343592166900635,155
5.347822904586792,163
5.351769685745239,160
5.359994411468506,159
5.3642473220825195,162
5.368167877197266,157
5.376293420791626,193
5.380702257156372,160
5.384557247161865,157
5.388669729232788,162
5.397042751312256,158
5.4009623527526855,162
5.405097007751465,171
5.413433313369751,156
5.417325735092163,163
5.421467304229736,157
5.425550937652588,162
5.43367075920105,160
5.438004493713379,156
5.441934108734131,162
5.450016498565674,158
5.4543986320495605,161
5.458344221115112,161
5.4624669551849365,157
5.4705915451049805,163
5.474713325500488,159
5.478832960128784,159
5.486980199813843,161
5.491042375564575,167
5.4952473640441895,162
5.499593734741211,160
5.507375240325928,158
5.511559963226318,162
5.515667676925659,157
5.523796081542969,162
5.527934789657593,160
5.532130241394043,160
5.536405563354492,161
5.544288396835327,158
5.548415422439575,177
5.552575588226318,160
5.560680389404297,160
5.564840793609619,162
5.569163799285889,157
5.57297682762146,162
5.581222772598267,162
5.585262060165405,157
5.589349985122681,164
5.597595930099487,159
5.601685285568237,161
5.605766296386719,161
5.609920024871826,159
5.618041753768921,162
5.622111797332764,159
5.626237392425537,160
5.634335041046143,161
5.638450384140015,156
5.642519950866699,162
5.646627187728882,160
5.65474271774292,158
5.658876180648804,160
5.663008213043213,157
5.671122074127197,162
5.675251007080078,160
5.679394721984863,159
5.6834330558776855,162
5.691648960113525,158
5.695842027664185,162
5.6998655796051025,161
5.708022356033325,157
5.712367057800293,165
5.716283321380615,158
5.720548868179321,151
5.728652477264404,161
5.732872724533081,155
5.736966609954834,169
5.745115041732788,159
5.749304294586182,160
5.753368139266968,161
5.757431983947754,157
5.765578031539917,155
5.769654035568237,159
5.773824691772461,159
5.781956434249878,162
5.786062002182007,158
5.790209531784058,162
5.794282913208008,159
5.80240273475647,157
5.806560039520264,161
5.810695648193359,155
5.818841934204102,167
5.822915077209473,159
5.827070474624634,156
5.831271409988403,161
5.839262247085571,157
5.84336256980896,162
5.847505569458008,160
5.855589151382446,156
5.85974645614624,163
5.863846302032471,158
5.868022441864014,162
5.876114368438721,161
5.880314588546753,156
5.884430885314941,198
5.892523527145386,159
5.896725654602051,161
5.9008283615112305,161
5.904910564422607,156
5.912992000579834,163
5.917179346084595,159
5.921364068984985,160
5.929426431655884,162
5.933551073074341,156
5.937642812728882,162
5.941768407821655,160
5.949915170669556,157
5.953998804092407,163
5.958155870437622,155
5.966407537460327,162
5.970335483551025,161
5.974514007568359,159
5.978626489639282,162
5.9866943359375,158
5.990875959396362,162
5.995028257369995,161
6.0031538009643555,160
6.00721287727356,164
6.011410713195801,159
6.01561164855957,161
6.0235161781311035,158
6.027631521224976,156
6.031945705413818,163
6.03995680809021,183
6.044034004211426,158
6.04818058013916,162
6.052347660064697,157
6.060409307479858,162
6.06456446647644,160
6.068688631057739,159
6.076748847961426,161
6.080904006958008,157
6.085036039352417,163
6.089206695556641,160
6.097277641296387,158
6.101535797119141,162
6.105472803115845,157
6.113556623458862,161
6.117642402648926,160
6.1217780113220215,159
6.12592887878418,163
6.1340038776397705,159
6.138250827789307,156
6.1422646045684814,161
6.150379419326782,156
6.154542446136475,162
6.15863823890686,159
6.162795543670654,208
6.171207904815674,161
6.175025701522827,156
6.1791582107543945,163
6.187311172485352,160
6.191443920135498,159
6.195584535598755,162
6.199694633483887,156
6.207718372344971,162
6.211899280548096,159
6.215961933135986,159
6.224286794662476,161
6.228343963623047,157
6.232596397399902,163
6.236569166183472,159
6.244670152664185,161
6.248979568481445,162
6.253093719482422,157
6.261122465133667,162
6.265428781509399,161
6.269340515136719,155
6.273524284362793,163
6.281637191772461,156
6.285782098770142,161
6.289835214614868,161
6.298086643218994,180
6.302109479904175,162
6.306229829788208,159
6.310374736785889,160
6.3184287548065186,161
6.322563648223877,156
6.32667350769043,162
6.3348071575164795,159
6.338933944702148,159
6.343076705932617,162
6.347248554229736,156
6.355319976806641,163
6.35941219329834,160
6.363606929779053,159
6.371722459793091,162
6.3758225440979,158
6.379967212677002,163
6.384130954742432,160
6.392203092575073,158
6.396396636962891,163
6.400577783584595,156
6.408546447753906,161
6.412642240524292,161
6.416799545288086,150
6.4212517738342285,162
6.429033994674683,156
6.433143138885498,161
6.437410593032837,160
6.445397138595581,156
6.449588775634766,163
6.4536027908325195,159
6.457683086395264,160
6.465807914733887,161
6.4698967933654785,161
6.473999500274658,165
6.482192039489746,159
6.486287355422974,160
6.49033522605896,161
6.49445366859436,156
6.502655744552612,162
6.506748914718628,160
6.510857582092285,158
6.519084215164185,162
6.523207187652588,158
6.5272557735443115,165
6.5313379764556885,161
6.539448261260986,156
6.543667316436768,162
6.547904968261719,147
6.55586838722229,163
6.560081958770752,160
6.5641279220581055,157
6.56818962097168,162
6.576380968093872,158
6.580856561660767,160
6.584585189819336,162
6.592777490615845,156
6.596947431564331,163
6.600929021835327,159
6.605083703994751,160
6.613559007644653,161
6.6173083782196045,157
6.621513366699219,164
6.629962682723999,160
6.633779048919678,159
6.637899875640869,161
6.641955137252808,156
6.650454998016357,162
6.654287576675415,159
6.658318519592285,157
6.666529417037964,162
6.6706602573394775,157
6.674696683883667,165
6.678828716278076,160
6.687012195587158,156
6.691076755523682,163
6.69523549079895,158
6.703364610671997,161
6.707413673400879,166
6.711530923843384,156
6.7157299518585205,162
6.7237677574157715,158
6.727919816970825,161
6.732107162475586,161
6.7402801513671875,157
6.744434833526611,162
6.748483419418335,157
6.752702713012695,160
6.760704755783081,161
6.764729738235474,156
6.768893003463745,168
6.777100324630737,160
6.78147292137146,159
6.785222768783569,163
6.789518594741821,156
6.797628402709961,162
6.801833629608154,160
6.80590295791626,165
6.813907623291016,162
6.817987680435181,156
6.822152614593506,161
6.826257944107056,160
6.83442759513855,174
6.838513374328613,166
6.842636346817017,158
6.85109543800354,162
6.855034112930298,160
6.859231948852539,157
6.863333463668823,160
6.871279716491699,157
6.875435829162598,161
6.8795106410980225,161
6.887700080871582,156
6.891757011413574,160
6.896022081375122,157
6.900088787078857,159
6.908121824264526,162
6.912284851074219,156
6.916418552398682,163
6.924485445022583,160
6.928638935089111,158
6.932796955108643,162
6.936872482299805,157
6.944973468780518,161
6.949324369430542,160
6.953218221664429,158
6.961395263671875,161
6.965561866760254,157
6.969657897949219,161
6.973717451095581,161
6.9822211265563965,157
6.985955476760864,163
6.990081548690796,157
6.9983038902282715,161
7.002344131469727,161
7.006486892700195,156
7.010595083236694,163
7.018775463104248,159
7.022969007492065,160
7.026967763900757,161
7.035108804702759,156
7.039186716079712,162
7.043371200561523,158
7.04753041267395,158
7.055567264556885,161
7.059729099273682,156
7.063894987106323,163
7.0720319747924805,159
7.07607102394104,159
7.080338478088379,162
7.084348678588867,157
7.092434883117676,161
7.096607446670532,160
7.100677728652954,158
7.108806610107422,163
7.1129679679870605,158
7.11703634262085,161
7.121375799179077,161
7.12933611869812,156
7.133505344390869,162
7.137552499771118,156
7.145707607269287,138
7.149824142456055,145
7.15395450592041,163
7.158100128173828,163
7.166273355484009,175
7.170305252075195,165
7.174375057220459,162
7.1825642585754395,157
7.186676979064941,161
7.190891981124878,156
7.194955110549927,159
7.203097820281982,161
7.207169532775879,155
7.211318731307983,164
