1.722123384475708,329
1.7263290882110596,326
1.7304129600524902,317
1.7385642528533936,330
1.7425916194915771,316
1.746640682220459,330
1.7506957054138184,325
1.7588565349578857,320
1.7629337310791016,328
1.767082929611206,313
1.775176763534546,331
1.7793705463409424,322
1.783513069152832,323
1.7875940799713135,327
1.795795202255249,313
1.8002781867980957,331
1.8040001392364502,320
1.8120970726013184,327
1.8165748119354248,327
1.8205156326293945,309
1.8244118690490723,331
1.833069086074829,319
1.8371641635894775,329
1.8407673835754395,327
1.8493685722351074,315
1.8535635471343994,330
1.8571393489837646,346
1.861320972442627,344
1.8697280883789062,325
1.8735616207122803,319
1.8776655197143555,329
1.8862183094024658,315
1.8902239799499512,332
1.894127607345581,323
1.8982458114624023,324
1.9063589572906494,330
1.9105572700500488,315
1.9147059917449951,332
1.9227828979492188,323
1.9268875122070312,327
1.9310309886932373,329
1.935126543045044,313
1.9432950019836426,331
1.9474048614501953,320
1.9516170024871826,330
1.959632158279419,326
1.9638142585754395,316
1.967958927154541,332
1.972071647644043,313
1.9801421165466309,332
1.9842541217803955,326
1.9883313179016113,319
1.9964284896850586,330
2.0005829334259033,314
2.0046441555023193,331
2.0088858604431152,324
2.017076253890991,321
2.021190881729126,329
2.0253493785858154,313
2.0333354473114014,320
2.0375330448150635,322
2.0415256023406982,327
2.04567551612854,328
2.0538299083709717,315
2.0578646659851074,330
2.0620338916778564,321
2.0702037811279297,329
2.074186086654663,327
2.078322172164917,316
2.0824971199035645,332
2.0905392169952393,318
2.094738721847534,331
2.098797559738159,326
2.1069798469543457,317
2.111117124557495,330
2.11552357673645,316
2.1195297241210938,332
2.127452850341797,326
2.1316230297088623,322
2.136014699935913,329
2.1438193321228027,282
2.148341655731201,333
2.152510643005371,322
2.1561403274536133,327
2.164553165435791,329
2.16873836517334,314
2.172532796859741,332
2.1810462474823,321
2.1848702430725098,329
2.189326047897339,327
2.19307541847229,314
2.201584815979004,330
2.2053754329681396,318
2.2095110416412354,331
2.217663049697876,328
2.222106456756592,318
2.2258617877960205,331
2.229964256286621,316
2.2384397983551025,332
2.2422449588775635,326
2.2463221549987793,322
2.254646062850952,330
2.2585949897766113,318
2.262662887573242,332
2.2667548656463623,324
2.2749271392822266,325
2.279118537902832,322
2.28318452835083,314
2.2913053035736084,333
2.295515537261963,321
2.2996017932891846,328
2.303659677505493,329
2.311858654022217,316
2.315995931625366,332
2.3200550079345703,321
2.3281993865966797,332
2.3325700759887695,327
2.336385488510132,329
2.3404788970947266,330
2.3487038612365723,316
2.352813959121704,331
2.356865644454956,326
2.3651063442230225,321
2.3692495822906494,330
2.373335599899292,316
2.377385139465332,333
2.3858838081359863,335
2.3899781703948975,326
2.393730878829956,329
2.4022605419158936,315
2.406482219696045,332
2.410106658935547,323
2.4142849445343018,327
2.42264986038208,329
2.4265799522399902,314
2.43068265914917,332
2.4388585090637207,340
2.4428813457489014,332
2.4469895362854004,328
2.4512369632720947,317
2.4593303203582764,332
2.4635164737701416,318
2.4676454067230225,333
2.4756674766540527,326
2.4798052310943604,317
2.483968734741211,330
2.4885075092315674,316
2.496201276779175,332
2.5004281997680664,325
2.504509687423706,324
2.5125951766967773,329
2.516662359237671,314
2.5207130908966064,332
2.524803400039673,323
2.5331168174743652,328
2.5370934009552,329
2.541185140609741,316
2.54938006401062,333
2.5536181926727295,322
2.557936429977417,330
2.5617313385009766,328
2.570338010787964,315
2.57391357421875,331
2.578084945678711,317
2.586263656616211,331
2.5903940200805664,325
2.5945334434509277,315
2.5986692905426025,327
2.606710910797119,313
2.610821485519409,330
2.6149957180023193,318
2.623117208480835,322
2.6272215843200684,324
2.6313326358795166,311
2.635432004928589,328
2.6435439586639404,319
2.6477720737457275,323
2.651862144470215,324
2.6599364280700684,309
2.6641154289245605,328
2.668252944946289,319
2.6726796627044678,326
2.680488348007202,329
2.684818983078003,315
2.6887083053588867,337
2.696796178817749,320
2.7009482383728027,332
2.7054805755615234,329
2.7091379165649414,319
2.7173452377319336,332
2.7217438220977783,317
2.7255468368530273,331
2.7337465286254883,327
2.7378008365631104,321
2.741919755935669,331
2.74603271484375,315
2.754615545272827,333
2.7582130432128906,325
2.7624287605285645,325
2.7704575061798096,330
2.7746434211730957,315
2.7787954807281494,333
2.782923698425293,323
2.7910232543945312,329
2.7951090335845947,329
2.7993099689483643,317
2.807415008544922,333
2.8115358352661133,320
2.815622568130493,331
2.81982159614563,328
2.8278419971466064,316
2.8319644927978516,331
2.836104154586792,318
2.8442203998565674,332
2.848421335220337,324
2.8525264263153076,321
2.8568973541259766,332
2.8647561073303223,315
2.8692986965179443,333
2.8730037212371826,324
2.881176710128784,324
2.8852458000183105,330
2.889342784881592,315
2.893465995788574,332
2.9020607471466064,359
2.906069040298462,329
2.909834623336792,329
2.9179770946502686,315
2.922434091567993,332
2.926215648651123,321
2.930295705795288,330
2.93858003616333,328
2.9425535202026367,317
2.9467101097106934,332
2.955150604248047,318
2.958951711654663,332
2.9631052017211914,327
2.9672141075134277,320
2.9752585887908936,331
2.97943377494812,317
2.9835498332977295,334
2.99165415763855,325
2.9957735538482666,323
2.9999797344207764,330
3.0040578842163086,315
3.0121877193450928,334
3.0164988040924072,324
3.0204226970672607,329
3.028550148010254,331
3.0327365398406982,338
3.0368313789367676,335
3.0409493446350098,321
3.049091100692749,331
3.053602695465088,329
3.057260513305664,316
3.0654091835021973,331
3.0698227882385254,318
3.0736682415008545,332
3.0777876377105713,326
3.0863664150238037,319
3.090000629425049,331
3.0941243171691895,316
3.098296642303467,333
3.1066548824310303,325
3.11055850982666,323
3.114593267440796,330
3.1227269172668457,318
3.126889228820801,334
3.1309943199157715,324
3.139108419418335,327
3.1432783603668213,328
3.1474032402038574,315
3.151637554168701,332
3.1596856117248535,322
3.1637611389160156,330
3.167893886566162,328
3.1719887256622314,317
3.18013334274292,332
3.1845574378967285,319
3.188326358795166,333
3.1965417861938477,327
3.2006168365478516,318
3.2047481536865234,331
3.212885856628418,316
3.2169923782348633,333
3.221087694168091,326
3.225193977355957,321
3.2333624362945557,333
3.2375006675720215,315
3.2417664527893066,333
3.2497568130493164,324
3.253798723220825,327
3.257936477661133,330
3.262105941772461,316
3.2702369689941406,332
3.274308204650879,322
3.2784523963928223,330
3.2825777530670166,329
3.290788412094116,314
3.2948672771453857,332
3.298902988433838,319
3.307056427001953,331
3.3112287521362305,323
3.3153293132781982,317
3.31948184967041,333
3.3276069164276123,316
3.3317391872406006,334
3.3358335494995117,327
3.3439078330993652,326
3.3480749130249023,331
3.352196216583252,316
3.3562567234039307,334
3.3645126819610596,325
3.368835210800171,344
3.372544288635254,329
3.380784034729004,300
3.3849337100982666,333
3.3889949321746826,323
3.3931634426116943,329
3.4016456604003906,330
3.4055843353271484,316
3.4095704555511475,333
3.4176666736602783,318
3.4221158027648926,327
3.425868272781372,323
3.430002212524414,315
3.4381229877471924,352
3.4422218799591064,315
3.446309804916382,330
3.454371929168701,324
3.4584801197052,317
3.4626049995422363,328
3.4667160511016846,294
3.47489333152771,329
3.4790403842926025,320
3.483102798461914,320
3.49135684967041,346
3.4954192638397217,310
3.4995365142822266,329
3.504032611846924,320
3.5119030475616455,325
3.5163683891296387,325
3.5201005935668945,311
3.5281870365142822,326
3.5322396755218506,316
3.5363731384277344,325
3.5403928756713867,325
3.5491464138031006,318
3.552847385406494,331
3.5568220615386963,318
3.5651135444641113,331
3.5696778297424316,325
3.573194742202759,320
3.5773684978485107,331
3.5857362747192383,316
3.5902044773101807,333
3.5937845706939697,326
3.6024115085601807,326
3.6061127185821533,330
3.6102042198181152,314
3.614356279373169,332
3.6227219104766846,323
3.626554012298584,328
3.6306278705596924,330
3.638819932937622,315
3.642937421798706,333
3.6470963954925537,322
3.651489019393921,341
3.6592929363250732,329
3.6634676456451416,317
3.667693614959717,335
3.6756303310394287,319
3.67977237701416,331
3.6842644214630127,329
3.6882333755493164,320
3.696164608001709,332
3.7006120681762695,317
3.704399824142456,333
3.7125024795532227,326
3.7169735431671143,324
3.721134901046753,335
3.724834442138672,322
3.733095645904541,334
3.737119436264038,339
3.741201639175415,328
3.7493956089019775,351
3.7536532878875732,315
3.757660388946533,334
3.761744976043701,322
3.7703170776367188,331
3.7740325927734375,330
3.7781319618225098,315
3.786268711090088,332
3.790320873260498,320
3.7945549488067627,332
3.7986247539520264,327
3.8067853450775146,318
3.8108713626861572,331
3.8149516582489014,318
3.823068141937256,334
3.827200174331665,329
3.8313212394714355,323
3.8354055881500244,333
3.8435897827148438,316
3.8476922512054443,340
3.8518033027648926,325
3.8599250316619873,325
3.864032745361328,330
3.868175506591797,316
3.8723013401031494,340
3.880478620529175,324
3.8845438957214355,330
3.8886289596557617,330
3.89680814743042,317
3.900895595550537,334
3.904985189437866,322
3.909034252166748,332
3.917221784591675,330
3.921384811401367,319
3.9254605770111084,332
3.9336934089660645,319
3.9377872943878174,333
3.941894054412842,327
3.9459354877471924,322
3.9541797637939453,331
3.9582085609436035,315
3.9623000621795654,331
3.9704902172088623,323
3.974604606628418,324
3.9786458015441895,329
3.98290753364563,314
3.9910037517547607,333
3.995082139968872,321
3.9992728233337402,327
4.007375717163086,325
4.011505126953125,318
4.0156121253967285,326
4.019731760025024,315
4.027921915054321,357
4.032121181488037,325
4.036218881607056,355
4.044294834136963,331
4.048479080200195,318
4.052625417709351,332
4.056679964065552,345
4.064847946166992,320
4.068959474563599,329
4.073076248168945,315
4.081208229064941,322
4.085376501083374,324
4.089401721954346,324
4.09355902671814,330
4.1016845703125,292
4.10629940032959,334
4.109967947006226,325
4.118097543716431,328
4.122632741928101,330
4.126336097717285,317
4.130412578582764,348
4.138520956039429,322
4.14265251159668,333
4.146799087524414,330
4.155231475830078,318
4.1590576171875,332
4.163138389587402,320
4.16731071472168,333
4.17534327507019,328
4.179579973220825,320
4.183606863021851,332
4.191781520843506,317
4.195855617523193,335
4.200042724609375,326
4.204070806503296,325
4.212118148803711,332
4.216293811798096,318
4.2204108238220215,335
4.228491544723511,325
4.232619047164917,330
4.236770153045654,330
4.2408246994018555,317
4.249012231826782,335
4.253181457519531,322
4.2572340965271,332
4.265433311462402,330
4.269728899002075,316
4.273616552352905,333
4.277729034423828,319
4.286325931549072,335
4.2900636196136475,328
4.294111728668213,321
4.302269458770752,332
4.306662559509277,316
4.3104636669158936,330
4.314579010009766,327
4.322744846343994,321
4.3268067836761475,328
4.330986738204956,340
4.339131116867065,333
4.343289613723755,325
4.347318649291992,330
4.351579904556274,331
4.359569311141968,317
4.363751173019409,334
4.367895841598511,323
4.3759636878967285,332
4.380133628845215,332
4.384673118591309,319
4.388370752334595,335
4.3964879512786865,320
4.4010632038116455,334
4.404770135879517,330
4.412890911102295,321
4.416982650756836,334
4.42112135887146,319
4.42516016960144,336
4.433642387390137,328
4.437685966491699,324
4.44157862663269,324
4.44973349571228,317
4.4539453983306885,334
4.4580724239349365,340
4.462131977081299,329
4.4703285694122314,333
4.474462270736694,318
4.4785237312316895,335
4.4866416454315186,324
4.490806341171265,332
4.494924545288086,330
4.498914957046509,317
4.5070013999938965,338
4.511160850524902,322
4.515319585800171,334
4.523424386978149,332
4.527519464492798,321
4.531715393066406,333
4.53577446937561,320
4.5438926219940186,337
4.548128366470337,330
4.55218243598938,325
4.560265302658081,333
4.564476013183594,317
4.568471431732178,337
4.573081970214844,326
4.580733299255371,328
4.585349798202515,331
4.589068174362183,298
4.597131252288818,336
4.601632118225098,309
4.605525016784668,332
4.60947847366333,332
4.617614984512329,319
4.622069597244263,356
4.625805139541626,321
4.634475231170654,334
4.638539791107178,330
4.642169952392578,320
4.646295547485352,341
4.6546173095703125,319
4.658588886260986,335
4.662667989730835,329
4.670815467834473,323
4.6750617027282715,333
4.679121732711792,318
4.683234930038452,335
4.69134259223938,328
4.695559024810791,328
4.699625253677368,334
4.707809925079346,319
4.711856126785278,337
4.71631121635437,326
4.720138072967529,332
4.728172779083252,331
4.732334613800049,317
4.736496925354004,334
4.744572401046753,322
4.748697519302368,340
4.752859115600586,330
4.756988525390625,320
4.7650675773620605,333
4.769258975982666,320
4.773353338241577,346
4.781520128250122,330
4.785859107971191,323
4.790034055709839,334
4.79376745223999,319
4.802401542663574,336
4.806408405303955,327
4.810149669647217,327
4.8186256885528564,332
4.8226478099823,317
4.826500177383423,327
4.83062481880188,324
4.8391382694244385,329
4.842907905578613,334
4.846999883651733,316
4.8555262088775635,334
4.859273433685303,318
4.863430976867676,337
4.867756605148315,331
4.875616073608398,320
4.879786968231201,334
4.88394832611084,320
4.892057418823242,335
4.896176099777222,329
4.900282382965088,321
4.9043920040130615,333
4.912497282028198,318
4.916643857955933,335
4.920790910720825,327
4.928865671157837,326
4.933393716812134,332
4.937137126922607,315
4.941148042678833,335
4.949383735656738,325
4.9536473751068115,330
4.957611322402954,332
4.9657676219940186,317
4.970326662063599,341
4.973990440368652,322
4.978044033050537,332
4.986254692077637,330
4.99040412902832,318
4.994477987289429,334
5.002561330795288,320
5.0067458152771,334
5.010806322097778,329
5.014922142028809,322
5.023120403289795,332
5.027179002761841,318
5.03128457069397,334
5.039720773696899,327
5.043565988540649,326
5.047706127166748,333
5.051884651184082,317
5.059915065765381,335
5.064064025878906,324
5.068649053573608,329
5.076292514801025,331
5.080549240112305,316
5.084780931472778,335
5.088674545288086,323
5.096818447113037,333
5.1014134883880615,356
5.105129241943359,320
5.113209962844849,335
5.117670297622681,321
5.1214599609375,334
5.1254723072052,330
5.134057521820068,321
5.138236999511719,334
5.141957521438599,318
5.150106906890869,335
5.15420937538147,328
5.15825629234314,323
5.162393808364868,332
5.170682668685913,317
5.174592018127441,335
5.178798198699951,326
5.186936616897583,330
5.191043376922607,332
5.195152521133423,317
5.1993348598480225,335
5.207442283630371,322
5.21149206161499,332
5.215625047683716,330
5.223774671554565,318
5.2278807163238525,335
5.2320098876953125,321
5.236140012741089,334
5.244272947311401,329
5.2484047412872314,321
5.252805233001709,333
5.260664463043213,312
5.264737606048584,335
5.268921852111816,329
5.2734375,325
5.281155824661255,333
5.285674810409546,318
5.289368152618408,336
5.297628879547119,326
5.301815509796143,329
5.30583381652832,330
5.310038805007935,315
5.3181116580963135,334
5.322261810302734,322
5.326411008834839,331
5.334552526473999,328
5.3386664390563965,316
5.3427793979644775,331
5.346775531768799,319
5.354915618896484,331
5.358944654464722,325
5.363178491592407,317
5.371618270874023,329
5.375448226928711,314
5.379572629928589,331
5.383617877960205,325
5.391773462295532,323
5.395869731903076,332
5.400046110153198,317
5.408152341842651,335
5.412251234054565,327
5.416393518447876,348
5.420476913452148,332
5.428570747375488,317
5.432719469070435,335
5.436848878860474,324
5.444935083389282,332
5.449141502380371,333
5.453216314315796,317
5.457306146621704,335
5.465529441833496,326
5.46951961517334,335
5.473652601242065,330
5.481837272644043,320
5.485973119735718,334
5.490026235580444,320
5.494215965270996,336
5.5022993087768555,330
5.506404399871826,325
5.510602235794067,334
5.51872706413269,320
5.522825479507446,336
5.526956081390381,331
5.531051397323608,329
5.539168834686279,332
5.54331374168396,318
5.547480583190918,338
5.5555174350738525,325
5.559683322906494,333
5.563839435577393,332
5.567923307418823,319
5.576050281524658,340
5.580193758010864,322
5.584305763244629,333
5.592460632324219,331
5.59660267829895,322
5.600660562515259,335
5.604790449142456,320
5.612941265106201,336
5.617069721221924,330
5.621530532836914,324
5.6292924880981445,332
5.633451223373413,318
5.637674808502197,335
5.64163875579834,327
5.649778127670288,328
5.65433144569397,333
5.658030986785889,319
5.666224241256714,336
5.670250654220581,345
5.674353361129761,333
5.678418159484863,331
5.686640024185181,317
5.690663814544678,336
5.694832801818848,323
5.703311204910278,328
5.7071239948272705,327
5.711223363876343,319
5.715323209762573,333
5.723571062088013,319
5.727573871612549,334
5.731754302978516,321
5.739872932434082,324
5.743952035903931,333
5.7480785846710205,319
5.752217054367065,335
5.760333776473999,327
5.764461040496826,328
5.768581390380859,333
5.776692628860474,317
5.780881404876709,336
5.784959554672241,326
5.78950047492981,331
5.797214984893799,332
5.8013222217559814,318
5.805435419082642,335
5.813604831695557,324
5.817765235900879,334
5.8218300342559814,331
5.825955867767334,320
5.834069490432739,335
5.838588714599609,320
5.842340707778931,339
5.85055136680603,330
5.854668378829956,323
5.858679294586182,345
5.8627846240997314,317
5.87091588973999,335
5.8750879764556885,327
5.879136562347412,328
5.887335538864136,333
5.891464471817017,319
5.895556688308716,336
5.899669170379639,326
5.907804012298584,338
5.911884546279907,331
5.916022539138794,319
5.924157619476318,334
5.928287744522095,344
5.932443857192993,334
5.936645746231079,331
5.944697618484497,319
5.948785066604614,335
5.95294976234436,317
5.961036205291748,334
5.965161323547363,331
5.969251394271851,323
5.9733641147613525,333
5.9815452098846436,319
5.985660552978516,336
5.989743947982788,329
5.997893333435059,326
6.002051830291748,333
6.006128549575806,317
6.010221004486084,335
6.018348932266235,324
6.02253794670105,329
6.0266008377075195,328
6.0347607135772705,317
6.038793325424194,334
6.042879819869995,324
6.047008991241455,333
6.055124044418335,331
6.059258222579956,319
6.063357830047607,335
6.0716001987457275,322
6.0756330490112305,335
6.079766273498535,330
6.08432936668396,324
6.092076063156128,333
6.096144437789917,318
6.100305557250977,346
6.108593940734863,328
6.1125500202178955,327
6.116959571838379,333
6.120777606964111,317
6.1289167404174805,335
6.133044481277466,326
6.137145042419434,329
6.145281791687012,332
6.149477958679199,319
6.153541326522827,336
6.157594919204712,324
6.16579794883728,333
6.1698691844940186,333
6.173921346664429,319
6.182224273681641,359
6.1864914894104,321
6.190565586090088,334
6.194706678390503,330
6.202759027481079,322
6.206875801086426,334
6.210979700088501,319
6.21910285949707,335
6.223308324813843,328
6.227375745773315,326
6.2314581871032715,333
6.239532232284546,318
6.243630409240723,336
6.247757911682129,328
6.2558863162994385,330
6.259952545166016,332
6.264212131500244,316
6.26831579208374,335
6.27634334564209,324
6.280590057373047,331
6.284619092941284,331
6.2927937507629395,322
6.296874761581421,334
6.30107855796814,320
6.305129051208496,335
6.31325626373291,330
6.317431449890137,322
6.321509122848511,334
6.329604387283325,319
6.333839416503906,336
6.338306665420532,329
6.342032432556152,324
6.350182056427002,334
6.354731798171997,317
6.358295917510986,336
6.366552114486694,327
6.370754957199097,330
6.374727249145508,331
6.378856658935547,318
6.387262344360352,336
6.39107608795166,325
6.395214080810547,333
6.403371334075928,332
6.40758204460144,319
6.411613702774048,334
6.415666580200195,337
6.423830509185791,334
6.427964448928833,329
6.432142972946167,320
6.440212965011597,339
6.444382190704346,319
6.448494911193848,336
6.452608108520508,328
6.460690975189209,326
6.464909315109253,332
6.468932151794434,344
6.477133274078369,336
6.481182813644409,327
6.485345363616943,331
6.489370822906494,332
6.497575044631958,346
6.501732587814331,336
6.506010055541992,324
6.513947248458862,333
6.51810622215271,331
6.522177696228027,317
6.526362180709839,334
6.5345025062561035,322
6.5387561321258545,342
6.54279899597168,330
6.550771713256836,322
6.554868459701538,335
6.559023857116699,330
6.5631492137908936,335
6.571594476699829,329
6.575411081314087,324
6.579583644866943,332
6.5876851081848145,317
6.591811656951904,336
6.595826148986816,332
6.599961757659912,329
6.608115196228027,332
6.612255096435547,317
6.616314649581909,357
6.624540328979492,324
6.628604412078857,332
6.632733345031738,332
6.637282133102417,321
6.644934177398682,336
6.64909815788269,323
6.653127908706665,335
6.661354303359985,329
6.665523290634155,319
6.669599533081055,332
6.673678874969482,301
6.68188738822937,334
6.685982704162598,325
6.6900036334991455,322
6.698233604431152,327
6.702308654785156,316
6.706400156021118,334
6.710533142089844,324
6.718652248382568,326
6.722799062728882,345
6.7269251346588135,317
6.735114574432373,334
6.739205598831177,324
6.743305683135986,331
6.747385501861572,331
6.755538463592529,320
6.759636878967285,336
6.763751029968262,323
6.771937608718872,335
6.776060581207275,331
6.780225992202759,321
6.784258127212524,340
6.792433977127075,321
6.7965006828308105,335
6.800622463226318,330
6.808813810348511,326
6.812929630279541,334
6.816994905471802,318
6.82147741317749,335
6.829239368438721,340
6.833415508270264,328
6.837534427642822,332
6.84567403793335,317
6.849797010421753,336
6.854223251342773,325
6.857937574386597,333
6.866184949874878,333
6.870683908462524,319
6.874281644821167,336
6.882512331008911,323
6.8866868019104,333
6.890903472900391,331
6.894837141036987,320
6.903316974639893,334
6.90707802772522,320
6.911214113235474,335
6.9194042682647705,329
6.923513174057007,322
6.927580118179321,342
6.931710243225098,318
6.939856290817261,337
6.943912029266357,328
6.94804310798645,329
6.956556558609009,330
6.960311651229858,318
6.9645116329193115,336
6.968513011932373,327
6.976656436920166,332
6.980896711349487,333
6.984962701797485,319
6.993124961853027,335
6.997192621231079,324
7.00132942199707,335
7.0056471824646,329
7.013581991195679,321
7.017696142196655,336
7.021782875061035,321
7.029965400695801,337
7.034090042114258,331
7.038607358932495,323
7.042325735092163,335
7.050469875335693,319
7.054483413696289,336
7.058694362640381,328
7.0667948722839355,327
7.07090163230896,334
7.075045108795166,318
7.079162836074829,336
7.0876383781433105,327
7.091395854949951,339
7.095551490783691,334
7.103688716888428,320
7.10776162147522,356
7.111908435821533,325
7.116056442260742,335
7.124152183532715,332
7.128235340118408,322
7.132364749908447,337
7.140511751174927,322
7.144658088684082,336
7.148813486099243,331
7.152917861938477,323
7.161013603210449,334
7.165173292160034,319
7.169248819351196,336
7.1773881912231445,330
7.181544065475464,329
7.1856300830841064,335
7.189717769622803,319
7.1978600025177,338
7.201985597610474,326
7.20613694190979,328
7.214287996292114,329
7.218365669250488,319
7.222476959228516,336
7.226581811904907,324
7.234692573547363,334
7.2388482093811035,333
7.243000745773315,320
7.2471044063568115,335
7.255612134933472,321
7.2594153881073,336
7.263532876968384,335
7.271956443786621,327
7.275786876678467,335
7.279845714569092,319
7.283963203430176,338
7.292158365249634,329
7.296194314956665,327
7.300394535064697,333
7.308525085449219,318
7.312596321105957,336
7.316728353500366,327
7.320808172225952,331
7.32900071144104,332
7.333125114440918,320
7.337180137634277,338
7.34532618522644,325
7.349469423294067,336
7.3536176681518555,333
7.357658386230469,321
7.365824222564697,331
7.36995267868042,322
7.374049425125122,336
7.382227182388306,331
7.386684894561768,323
7.390473127365112,334
7.394556522369385,318
7.402692079544067,336
7.406844139099121,328
7.410909175872803,328
7.4190309047698975,334
7.423238039016724,320
7.427293300628662,339
7.431389093399048,328
7.439596891403198,333
7.443686008453369,337
7.447834014892578,320
7.456360101699829,337
7.459983825683594,325
7.46415638923645,335
7.4682936668396,332
7.476388692855835,320
7.480563402175903,336
7.4846556186676025,323
7.49285101890564,336
7.496892929077148,332
7.501034259796143,324
7.505150079727173,335
7.513295888900757,320
7.51741361618042,350
7.521738052368164,329
7.529631853103638,329
7.533794403076172,335
7.53791069984436,319
7.542018175125122,337
7.550197601318359,345
7.554234027862549,333
7.5583508014678955,333
7.566544771194458,320
7.570695400238037,337
7.57477879524231,325
7.578848361968994,335
7.587094783782959,333
7.591157913208008,322
7.595220327377319,336
7.603395700454712,323
7.607495546340942,337
7.611562013626099,332
7.615699291229248,325
7.623889684677124,336
7.627977132797241,319
7.632155895233154,337
7.640228748321533,328
7.644344091415405,327
7.648516416549683,333
7.6526038646698,320
7.6607959270477295,338
7.664905071258545,329
7.669282674789429,333
7.67705774307251,334
7.681223392486572,337
7.685669183731079,337
7.689693450927734,325
7.697542667388916,335
7.701769113540649,332
7.705845355987549,320
7.7139599323272705,335
7.718122720718384,323
7.722189426422119,335
7.726329326629639,331
7.734395265579224,323
7.738598823547363,334
7.742731094360352,320
7.750805616378784,337
7.754962205886841,330
7.759092807769775,327
7.763149738311768,331
7.771367073059082,315
7.775420188903809,314
7.779584169387817,322
7.78772759437561,328
7.79180645942688,329
7.795902729034424,316
7.800096035003662,345
7.808203935623169,308
7.812240123748779,334
7.8163816928863525,332
7.824532508850098,320
7.828681230545044,337
7.832803964614868,323
7.836937189102173,337
7.845032691955566,332
7.8490777015686035,325
7.853301763534546,337
7.861392259597778,319
7.86557674407959,338
7.869670152664185,330
7.873756170272827,316
7.881894111633301,334
7.886011362075806,319
7.890111923217773,337
7.8982367515563965,319
7.902417898178101,332
7.90643572807312,335
7.910579442977905,320
7.9187257289886475,338
7.92289924621582,325
7.926996946334839,336
7.935115337371826,333
7.939277172088623,320
7.943323373794556,337
7.947451591491699,321
7.955626964569092,335
7.9597437381744385,331
7.963850498199463,323
7.9719812870025635,334
7.976145029067993,320
7.980172395706177,338
7.984365701675415,331
7.992594480514526,329
7.9966723918914795,335
8.000871181488037,320
8.008936882019043,337
8.013000011444092,325
8.017151117324829,331
8.021221160888672,333
8.029272317886353,320
8.033354997634888,337
8.03751516342163,332
8.045594930648804,335
8.049721956253052,333
8.05386471748352,321
8.057898759841919,324
8.066152811050415,324
8.070230484008789,336
8.074299812316895,332
8.082512140274048,324
8.086669683456421,337
8.090864181518555,320
8.094964027404785,339
8.103227853775024,330
8.10721755027771,334
8.11139702796936,334
8.119403839111328,319
8.123548984527588,337
8.127651929855347,309
8.131795167922974,333
8.139862298965454,337
8.14398980140686,320
8.148155689239502,340
8.156290769577026,326
8.160444259643555,348
8.164575099945068,333
8.168667554855347,322
8.176696062088013,338
8.180902481079102,323
8.184977293014526,337
8.193230628967285,334
8.197241306304932,323
8.201405763626099,335
8.205486297607422,320
8.21362566947937,337
8.217801332473755,331
8.222235918045044,329
8.229992389678955,336
8.234126091003418,323
8.238263845443726,338
8.242372989654541,328
8.250616550445557,332
8.254780530929565,334
8.258812189102173,318
8.266892910003662,335
8.270983219146729,324
8.27516508102417,335
8.279180765151978,331
8.28731894493103,320
8.291438341140747,333
8.295528650283813,321
8.303598642349243,335
8.307747840881348,331
8.311849355697632,324
8.315946340560913,334
8.32408857345581,320
8.328209638595581,336
8.332364797592163,328
8.340473651885986,325
8.344582557678223,331
8.34869384765625,316
8.3527991771698,332
8.360934495925903,324
8.365167140960693,327
8.369277715682983,328
8.377466201782227,311
8.381500005722046,334
8.385621786117554,333
8.390055418014526,334
8.397854328155518,332
8.402505159378052,321
8.406186819076538,336
8.414244651794434,322
8.41867446899414,336
8.42248249053955,330
8.42668104171753,322
8.435048341751099,335
8.438786268234253,320
8.443055152893066,332
8.451176404953003,328
8.455247402191162,328
8.459381103515625,334
8.463478565216064,319
8.471641778945923,338
8.475777864456177,327
8.479863405227661,331
8.488467931747437,334
8.492186069488525,319
8.496266841888428,337
8.500367641448975,325
8.508566617965698,333
8.51263689994812,324
8.516712427139282,318
8.524828672409058,335
8.528932809829712,323
8.533113718032837,337
8.537212133407593,332
8.545333623886108,330
8.549462795257568,336
8.553742408752441,319
8.561713457107544,335
8.565892219543457,329
8.569974184036255,336
8.574071168899536,334
8.58218789100647,318
8.586693525314331,337
8.590307474136353,319
8.598533868789673,331
8.60271668434143,333
8.606781721115112,318
8.610901594161987,335
8.61908483505249,323
8.623271226882935,334
8.627362728118896,335
8.63560438156128,323
8.639663696289062,336
8.643733739852905,322
8.647749662399292,336
8.655948877334595,332
8.659993410110474,323
8.664160013198853,335
8.672306299209595,320
8.676448822021484,339
8.68056321144104,329
8.684831857681274,327
8.692812442779541,334
8.696895837783813,319
8.701051712036133,337
8.709199905395508,328
8.713258028030396,332
8.717373132705688,333
8.721719980239868,320
8.72960090637207,337
8.733792066574097,328
8.737875938415527,335
8.74602222442627,334
8.750151634216309,322
8.754295349121094,336
8.758347749710083,322
8.766550064086914,336
8.770703315734863,330
8.774774551391602,323
8.782986879348755,335
8.787351369857788,322
8.791131973266602,338
8.79525089263916,331
8.803404331207275,334
8.807584524154663,335
8.811595678329468,318
8.81976318359375,336
8.823884963989258,329
8.82796573638916,332
8.832095623016357,333
8.84016728401184,319
8.84429144859314,337
8.848491907119751,323
8.856648445129395,332
8.860772609710693,330
8.864868879318237,320
8.869022607803345,335
8.877107858657837,321
8.88119101524353,334
8.88537073135376,330
8.893493413925171,320
8.897574663162231,333
8.901729106903076,318
8.906149864196777,335
8.91392207145691,337
8.918296813964844,325
8.922773122787476,333
8.930392026901245,318
8.934649229049683,336
8.93873643875122,327
8.942732810974121,330
8.950782060623169,333
8.954957485198975,295
8.959058284759521,336
8.967289686203003,325
8.971339225769043,334
8.975500583648682,333
8.979724645614624,320
8.987749099731445,331
8.991801738739014,323
8.995851755142212,335
9.0040864944458,331
9.008094072341919,323
9.012175559997559,334
9.016395568847656,319
9.024439334869385,340
9.02854037284851,330
9.03303050994873,326
9.040848016738892,335
9.044929027557373,319
9.049088478088379,336
9.053564548492432,328
9.061275005340576,330
9.06554126739502,332
9.069814920425415,318
9.077863216400146,337
9.081862449645996,326
9.086382865905762,337
9.090001821517944,332
9.098237991333008,320
9.102694988250732,335
9.106362104415894,323
9.114535570144653,336
9.118651628494263,331
9.122731685638428,322
9.126854658126831,335
9.135054349899292,321
9.139140129089355,337
9.14321756362915,345
9.1517333984375,326
9.155659437179565,334
9.159820795059204,321
9.163797378540039,336
9.172008991241455,327
9.176100015640259,330
9.180159330368042,334
9.1884446144104,320
9.192596435546875,336
9.196552753448486,328
9.20085883140564,335
9.208921670913696,334
9.213095664978027,317
9.217216491699219,335
9.225322723388672,323
9.229482650756836,336
9.233551263809204,332
9.237735271453857,321
9.245744943618774,335
9.24996280670166,320
9.254136323928833,337
9.262247562408447,330
9.266380071640015,326
9.270537614822388,335
9.274620056152344,320
9.282669067382812,350
9.286864519119263,330
9.290945053100586,331
9.29908299446106,333
9.303161382675171,318
9.307269096374512,336
9.311416864395142,324
9.31950330734253,333
9.323583602905273,330
9.32760500907898,319
9.33583688735962,334
9.339920282363892,322
9.34394645690918,331
9.348112106323242,332
9.356316804885864,323
9.360440492630005,336
9.364511251449585,321
9.372995853424072,337
9.376708507537842,330
9.38082218170166,325
9.38502812385559,335
9.393151998519897,320
9.397186040878296,337
9.4014253616333,329
9.409606218338013,331
9.413603782653809,334
9.417799949645996,319
9.422292232513428,337
9.429970741271973,328
9.434179306030273,334
9.438282012939453,334
9.446329116821289,321
9.450637102127075,339
9.454667091369629,323
9.45885705947876,336
9.466941833496094,350
9.471220970153809,322
9.475350379943848,336
9.483286619186401,321
9.487574815750122,337
9.491586208343506,330
9.495718002319336,331
9.50383996963501,334
9.507956743240356,320
9.51210880279541,337
9.520201444625854,328
9.524271249771118,331
9.528398752212524,334
9.532500982284546,319
9.540585279464722,337
9.544717073440552,327
9.548923015594482,334
9.55699634552002,332
9.561091184616089,319
9.565261840820312,326
9.56964373588562,322
9.577497959136963,335
9.581617832183838,331
9.585784912109375,323
9.59391188621521,337
9.597993850708008,322
9.602081298828125,337
9.606250762939453,330
9.61432695388794,326
9.618491411209106,334
9.622738122940063,318
9.630694389343262,337
9.634884595870972,328
9.638933420181274,329
9.643059492111206,334
9.65122652053833,323
9.655326843261719,356
9.659460067749023,327
9.667568922042847,334
9.67170238494873,333
9.675841569900513,322
9.679930925369263,336
9.687995910644531,323
9.6921865940094,335
9.696230173110962,331
9.704676151275635,320
9.708622932434082,334
9.712576150894165,320
9.716801404953003,337
9.724837064743042,334
9.728955268859863,326
9.733082056045532,334
9.741211891174316,318
9.745367288589478,338
9.749543190002441,329
9.753962278366089,335
9.761736869812012,334
9.76584529876709,319
9.770375967025757,340
9.778078556060791,355
9.782272815704346,333
9.786358118057251,331
9.790339469909668,318
9.798538208007812,335
9.8026442527771,322
9.80673599243164,334
9.814953804016113,329
9.819130897521973,321
9.823205471038818,335
9.827337503433228,321
9.835760593414307,336
9.839625358581543,329
9.84389615058899,323
9.851914405822754,331
9.856035470962524,316
9.86003851890564,333
9.864150285720825,326
9.872679948806763,327
9.876412630081177,333
9.88051176071167,319
9.888750314712524,336
9.8927903175354,326
9.896843433380127,331
9.901082515716553,332
9.90923285484314,319
9.913200378417969,336
9.917455196380615,324
9.925816297531128,336
9.929610252380371,333
9.933833837509155,322
9.937882661819458,355
9.94596815109253,321
9.950210332870483,336
9.954441547393799,331
9.962522983551025,325
9.96665072441101,335
9.970909595489502,320
9.974872589111328,362
9.983008623123169,330
9.987115621566772,332
9.991327047348022,335
9.999252319335938,320
10.003669023513794,337
10.00757098197937,330
10.011558532714844,334
10.020204544067383,333
10.023893117904663,320
10.028053045272827,337
10.036502838134766,325
10.040263891220093,336
10.044605493545532,332
10.048518657684326,321
10.056628704071045,335
10.060797452926636,321
10.064838409423828,337
10.07339358329773,331
10.07715368270874,326
10.081231117248535,336
10.085412502288818,321
10.093578100204468,338
10.09758710861206,330
10.101777791976929,329
10.109946250915527,334
10.113993167877197,318
10.118188381195068,338
10.12271499633789,327
10.13030481338501,334
10.1344313621521,333
10.1386239528656,323
10.146818399429321,337
10.15096640586853,325
10.155149221420288,323
10.159258604049683,333
10.167359113693237,322
10.171530485153198,333
10.175531148910522,322
10.183648824691772,337
10.187630414962769,330
10.191844940185547,324
10.195846557617188,335
10.204111576080322,320
10.208206176757812,338
10.212252616882324,329
10.220451354980469,329
10.224605083465576,334
10.228809833526611,320
10.232964992523193,330
10.241001844406128,328
10.245057344436646,339
10.249274969100952,334
10.257503032684326,320
10.261613607406616,337
10.265737295150757,329
10.269880056381226,336
10.27796745300293,333
10.281989336013794,322
10.286062002182007,337
10.294152736663818,324
10.29834270477295,337
10.302531957626343,330
10.30659532546997,326
10.314672946929932,336
10.318835020065308,320
10.322917938232422,336
10.331088304519653,330
10.33519458770752,331
10.33929443359375,335
10.343512296676636,319
10.351565837860107,337
10.355606317520142,327
10.359881162643433,335
10.367930173873901,333
10.372057914733887,320
10.376372814178467,336
10.38021469116211,325
10.388718366622925,336
10.392793655395508,333
10.396629333496094,323
10.405081510543823,336
10.409190893173218,322
10.412990808486938,337
10.41708779335022,331
10.425345420837402,325
10.429402828216553,334
10.433516502380371,319
10.441633224487305,337
10.445831537246704,330
10.449934959411621,330
10.45440673828125,334
10.462137937545776,320
10.466291189193726,338
10.47040605545044,327
10.478508234024048,366
10.482599973678589,334
10.486816883087158,322
10.490941762924194,336
10.498994588851929,325
10.503161191940308,336
10.50735068321228,333
10.515468835830688,322
10.519663572311401,335
10.52373719215393,321
10.527812480926514,337
10.535870552062988,332
10.539985179901123,325
10.544267416000366,334
10.552572011947632,334
10.556697607040405,335
10.560479879379272,326
10.564589262008667,326
10.573120355606079,330
10.576780080795288,315
10.580883026123047,330
10.589344263076782,322
10.593221426010132,329
10.597290992736816,332
10.60137128829956,317
10.609631776809692,335
10.613733530044556,323
10.617784023284912,333
10.62590217590332,329
10.630023717880249,312
10.634179592132568,334
10.638656377792358,318
10.64636754989624,334
10.650615215301514,335
10.654800653457642,324
10.662741422653198,333
10.666943073272705,319
10.671089172363281,329
10.675111770629883,330
10.683280229568481,330
10.687430620193481,334
10.69150424003601,319
10.699682474136353,336
10.704126596450806,326
10.707897424697876,334
10.711955308914185,334
10.720545053482056,320
10.724731206893921,337
10.728344678878784,325
10.736708879470825,330
10.740655660629272,333
10.744752645492554,321
10.748864889144897,338
10.757428884506226,321
10.76113772392273,337
10.76521921157837,332
10.7733895778656,324
10.777505159378052,335
10.78159213066101,321
10.785745620727539,338
10.793864250183105,329
10.79795527458191,331
10.80213189125061,346
10.810248136520386,318
10.814414024353027,338
10.81854510307312,327
10.822657585144043,333
10.830683708190918,333
10.83486270904541,316
10.839264392852783,336
10.847094297409058,325
10.851285457611084,336
10.855381727218628,333
10.859469652175903,321
10.867581605911255,336
10.872117280960083,322
10.875861883163452,337
10.884009599685669,330
10.888566732406616,334
10.892214059829712,335
10.896234512329102,319
10.904757499694824,353
10.90860366821289,328
10.912635803222656,328
10.921172142028809,334
10.92495608329773,319
10.929140090942383,338
10.933181762695312,321
10.941317081451416,333
10.945474624633789,334
10.94960331916809,320
10.957704067230225,336
10.961811780929565,323
10.965912818908691,333
10.970046281814575,331
10.97813868522644,320
10.98231053352356,335
10.9863862991333,319
10.99458646774292,334
10.998659133911133,327
11.002838850021362,320
11.006855964660645,333
11.014986038208008,317
11.019152402877808,332
11.02328634262085,325
11.031369686126709,326
11.035606145858765,332
11.039582252502441,316
11.04367733001709,335
11.051826477050781,325
11.055880069732666,333
11.060012340545654,337
11.068281888961792,318
11.072685480117798,335
11.076518774032593,323
11.08054232597351,335
11.089165925979614,333
11.092878341674805,321
11.096894264221191,336
11.105150699615479,321
11.109294652938843,340
11.11327075958252,330
11.11751413345337,325
11.125543117523193,335
11.129728078842163,320
11.13380742073059,338
11.141942501068115,331
11.146072387695312,329
11.150217533111572,334
11.154340267181396,318
11.162416696548462,335
11.166553735733032,328
11.17085599899292,333
11.178815364837646,332
11.182960271835327,320
11.1874361038208,337
11.191177368164062,325
11.199353694915771,336
11.203498840332031,333
11.20763635635376,322
11.211700201034546,336
11.219881296157837,322
11.223901271820068,337
11.22803783416748,331
11.236543893814087,324
11.24074673652649,335
11.244768142700195,320
11.252649545669556,338
11.25716519355774,330
11.260817050933838,331
11.264870405197144,341
11.273079872131348,318
11.277137041091919,331
11.281249761581421,320
11.285434246063232,326
11.29356575012207,327
11.297607660293579,316
11.301785469055176,333
11.309950351715088,320
11.313966512680054,331
11.318111896514893,329
11.322651386260986,318
11.330355405807495,331
11.33446455001831,317
11.338630676269531,332
11.346745729446411,342
11.35092282295227,322
11.355292558670044,334
11.359055519104004,318
11.36725926399231,336
11.371763229370117,328
11.375463485717773,318
11.383620977401733,326
11.387832641601562,314
11.391838073730469,329
11.395960330963135,319
11.404581785202026,327
11.408235549926758,328
11.41236662864685,315
11.420632123947144,332
