ISO-10303-21;
HEADER;
/* Generated by software containing ST-Developer
 * from STEP Tools, Inc. (www.steptools.com) 
 */

FILE_DESCRIPTION(
/* description */ (''),
/* implementation_level */ '2;1');

FILE_NAME(
/* name */ 'Ventouri_flow_meter_rev_1.step',
/* time_stamp */ '2023-12-14T21:14:21+02:00',
/* author */ (''),
/* organization */ (''),
/* preprocessor_version */ 'ST-DEVELOPER v20',
/* originating_system */ 'Autodesk Translation Framework v12.14.0.127',

/* authorisation */ '');

FILE_SCHEMA (('AUTOMOTIVE_DESIGN { 1 0 10303 214 3 1 1 }'));
ENDSEC;

DATA;
#10=MECHANICAL_DESIGN_GEOMETRIC_PRESENTATION_REPRESENTATION('',(#25,#26),
#846);
#11=CONTEXT_DEPENDENT_OVER_RIDING_STYLED_ITEM('',(#872),#858,#26,(#17));
#12=CONTEXT_DEPENDENT_OVER_RIDING_STYLED_ITEM('',(#872),#858,#26,(#18));
#13=MAPPED_ITEM('',#14,#423);
#14=REPRESENTATION_MAP(#423,#857);
#15=ITEM_DEFINED_TRANSFORMATION($,$,#380,#421);
#16=ITEM_DEFINED_TRANSFORMATION($,$,#380,#422);
#17=(
REPRESENTATION_RELATIONSHIP($,$,#858,#857)
REPRESENTATION_RELATIONSHIP_WITH_TRANSFORMATION(#15)
SHAPE_REPRESENTATION_RELATIONSHIP()
);
#18=(
REPRESENTATION_RELATIONSHIP($,$,#858,#857)
REPRESENTATION_RELATIONSHIP_WITH_TRANSFORMATION(#16)
SHAPE_REPRESENTATION_RELATIONSHIP()
);
#19=CONTEXT_DEPENDENT_SHAPE_REPRESENTATION(#17,#855);
#20=CONTEXT_DEPENDENT_SHAPE_REPRESENTATION(#18,#856);
#21=NEXT_ASSEMBLY_USAGE_OCCURRENCE('Component1:1','Component1:1',
'Component1:1',#860,#861,'Component1:1');
#22=NEXT_ASSEMBLY_USAGE_OCCURRENCE('Component1:2','Component1:2',
'Component1:2',#860,#861,'Component1:2');
#23=SHAPE_REPRESENTATION_RELATIONSHIP('SRR','None',#858,#24);
#24=ADVANCED_BREP_SHAPE_REPRESENTATION('',(#27),#845);
#25=STYLED_ITEM('',(#872),#27);
#26=STYLED_ITEM('',(#873),#13);
#27=MANIFOLD_SOLID_BREP('Body1',#366);
#28=CONICAL_SURFACE('',#408,6.6249999998349,0.87266462593884);
#29=CONICAL_SURFACE('',#412,4.62499999993803,0.349065850380117);
#30=CONICAL_SURFACE('',#416,4.62499999993771,0.349065850380033);
#31=CONICAL_SURFACE('',#420,6.6249999998749,0.872664625961552);
#32=FACE_BOUND('',#126,.T.);
#33=FACE_BOUND('',#129,.T.);
#34=FACE_BOUND('',#134,.T.);
#35=FACE_BOUND('',#136,.T.);
#36=FACE_BOUND('',#137,.T.);
#37=FACE_BOUND('',#138,.T.);
#38=FACE_BOUND('',#139,.T.);
#39=FACE_BOUND('',#141,.T.);
#40=FACE_BOUND('',#145,.T.);
#41=FACE_BOUND('',#148,.T.);
#42=LINE('',#576,#58);
#43=LINE('',#619,#59);
#44=LINE('',#661,#60);
#45=LINE('',#707,#61);
#46=LINE('',#714,#62);
#47=LINE('',#754,#63);
#48=LINE('',#796,#64);
#49=LINE('',#804,#65);
#50=LINE('',#810,#66);
#51=LINE('',#814,#67);
#52=LINE('',#818,#68);
#53=LINE('',#822,#69);
#54=LINE('',#826,#70);
#55=LINE('',#830,#71);
#56=LINE('',#834,#72);
#57=LINE('',#837,#73);
#58=VECTOR('',#434,2.5);
#59=VECTOR('',#441,2.5);
#60=VECTOR('',#444,4.);
#61=VECTOR('',#453,4.);
#62=VECTOR('',#462,2.);
#63=VECTOR('',#465,2.);
#64=VECTOR('',#470,7.50000000000337);
#65=VECTOR('',#481,17.5);
#66=VECTOR('',#488,7.49999999989742);
#67=VECTOR('',#493,6.6249999998349);
#68=VECTOR('',#498,5.74999999987553);
#69=VECTOR('',#503,4.62499999993803);
#70=VECTOR('',#508,3.49999999999998);
#71=VECTOR('',#513,4.62499999993771);
#72=VECTOR('',#518,5.7499999998749);
#73=VECTOR('',#523,6.6249999998749);
#74=B_SPLINE_CURVE_WITH_KNOTS('',3,(#538,#539,#540,#541,#542,#543,#544,
#545,#546,#547,#548,#549,#550,#551,#552,#553,#554,#555),.UNSPECIFIED.,.F.,
 .F.,(4,2,2,2,2,2,2,2,4),(0.377241505197162,0.471551206404814,0.565860907612465,
0.660171959003394,0.754483010394323,0.848794061785252,0.943105113176181,
1.03741481438383,1.13172451559149),.UNSPECIFIED.);
#75=B_SPLINE_CURVE_WITH_KNOTS('',3,(#556,#557,#558,#559,#560,#561,#562,
#563,#564,#565,#566,#567,#568,#569,#570,#571,#572,#573,#574),
 .UNSPECIFIED.,.F.,.F.,(4,2,2,2,3,2,2,2,4),(1.13172451559149,1.22603421679914,
1.32034391800679,1.41465496939772,1.50896602078865,1.60327707217958,1.6975881235705,
1.79189782477816,1.88620752598581),.UNSPECIFIED.);
#76=B_SPLINE_CURVE_WITH_KNOTS('',3,(#582,#583,#584,#585,#586,#587,#588,
#589,#590,#591,#592,#593,#594,#595,#596,#597,#598,#599),.UNSPECIFIED.,.F.,
 .F.,(4,2,2,2,2,2,2,2,4),(0.377241505197161,0.471551206404813,0.565860907612465,
0.660171959003394,0.754483010394323,0.848794061785252,0.94310511317618,
1.03741481438383,1.13172451559148),.UNSPECIFIED.);
#77=B_SPLINE_CURVE_WITH_KNOTS('',3,(#600,#601,#602,#603,#604,#605,#606,
#607,#608,#609,#610,#611,#612,#613,#614,#615,#616,#617,#618),
 .UNSPECIFIED.,.F.,.F.,(4,2,2,2,3,2,2,2,4),(1.13172451559148,1.22603421679914,
1.32034391800679,1.41465496939772,1.50896602078865,1.60327707217957,1.6975881235705,
1.79189782477815,1.88620752598581),.UNSPECIFIED.);
#78=B_SPLINE_CURVE_WITH_KNOTS('',3,(#623,#624,#625,#626,#627,#628,#629,
#630,#631,#632,#633,#634,#635,#636,#637,#638,#639,#640),.UNSPECIFIED.,.F.,
 .F.,(4,2,2,2,2,2,2,2,4),(0.605007343704406,0.756251864067211,0.907496384430015,
1.05875553591941,1.21001468740881,1.36127383889821,1.51253299038761,1.66377751075041,
1.81502203111322),.UNSPECIFIED.);
#79=B_SPLINE_CURVE_WITH_KNOTS('',3,(#641,#642,#643,#644,#645,#646,#647,
#648,#649,#650,#651,#652,#653,#654,#655,#656,#657,#658,#659),
 .UNSPECIFIED.,.F.,.F.,(4,2,2,2,3,2,2,2,4),(1.81502203111322,1.96626655147602,
2.11751107183883,2.26877022332823,2.42002937481762,2.57128852630702,2.72254767779642,
2.87379219815923,3.02503671852203),.UNSPECIFIED.);
#80=B_SPLINE_CURVE_WITH_KNOTS('',3,(#669,#670,#671,#672,#673,#674,#675,
#676,#677,#678,#679,#680,#681,#682,#683,#684,#685,#686),.UNSPECIFIED.,.F.,
 .F.,(4,2,2,2,2,2,2,2,4),(0.605007343704406,0.756251864067211,0.907496384430015,
1.05875553591941,1.21001468740881,1.36127383889821,1.51253299038761,1.66377751075041,
1.81502203111322),.UNSPECIFIED.);
#81=B_SPLINE_CURVE_WITH_KNOTS('',3,(#687,#688,#689,#690,#691,#692,#693,
#694,#695,#696,#697,#698,#699,#700,#701,#702,#703,#704,#705),
 .UNSPECIFIED.,.F.,.F.,(4,2,2,2,3,2,2,2,4),(1.81502203111322,1.96626655147602,
2.11751107183883,2.26877022332823,2.42002937481762,2.57128852630702,2.72254767779642,
2.87379219815923,3.02503671852203),.UNSPECIFIED.);
#82=B_SPLINE_CURVE_WITH_KNOTS('',3,(#716,#717,#718,#719,#720,#721,#722,
#723,#724,#725),.UNSPECIFIED.,.F.,.F.,(4,2,2,2,4),(0.,0.0776486484345224,
0.155297296869045,0.232550630259834,0.309803963650624),.UNSPECIFIED.);
#83=B_SPLINE_CURVE_WITH_KNOTS('',3,(#726,#727,#728,#729,#730,#731,#732,
#733,#734,#735,#736,#737,#738,#739,#740,#741,#742,#743,#744,#745,#746,#747,
#748,#749,#750,#751),.UNSPECIFIED.,.F.,.F.,(4,2,2,2,2,2,2,2,2,2,2,2,4),
(0.309803963650624,0.387057297041413,0.464310630432203,0.541959278866725,
0.619607927301247,0.69725657573577,0.774905224170292,0.852158557561081,
0.929411890951871,1.00666522434266,1.08391855773345,1.16156720616797,1.23921585460249),
 .UNSPECIFIED.);
#84=B_SPLINE_CURVE_WITH_KNOTS('',3,(#756,#757,#758,#759,#760,#761,#762,
#763,#764,#765),.UNSPECIFIED.,.F.,.F.,(4,2,2,2,4),(0.,0.0760509833453847,
0.152101966690769,0.228110708879306,0.304119451067843),.UNSPECIFIED.);
#85=B_SPLINE_CURVE_WITH_KNOTS('',3,(#766,#767,#768,#769,#770,#771,#772,
#773,#774,#775,#776,#777,#778,#779,#780,#781,#782,#783,#784,#785,#786,#787,
#788,#789,#790,#791),.UNSPECIFIED.,.F.,.F.,(4,2,2,2,2,2,2,2,2,2,2,2,4),
(0.304119451067843,0.380128193256379,0.456136935444916,0.532187918790301,
0.608238902135686,0.68428988548107,0.760340868826455,0.836349611014992,
0.912358353203528,0.988367095392065,1.0643758375806,1.14042682092599,1.21647780427137),
 .UNSPECIFIED.);
#86=CYLINDRICAL_SURFACE('',#383,2.5);
#87=CYLINDRICAL_SURFACE('',#386,2.5);
#88=CYLINDRICAL_SURFACE('',#387,4.);
#89=CYLINDRICAL_SURFACE('',#391,4.);
#90=CYLINDRICAL_SURFACE('',#395,2.);
#91=CYLINDRICAL_SURFACE('',#396,2.);
#92=CYLINDRICAL_SURFACE('',#397,7.45000000000337);
#93=CYLINDRICAL_SURFACE('',#402,17.5);
#94=CYLINDRICAL_SURFACE('',#406,7.44999999989742);
#95=CYLINDRICAL_SURFACE('',#410,5.74999999987553);
#96=CYLINDRICAL_SURFACE('',#414,3.49999999999998);
#97=CYLINDRICAL_SURFACE('',#418,5.7499999998749);
#98=FACE_OUTER_BOUND('',#120,.T.);
#99=FACE_OUTER_BOUND('',#121,.T.);
#100=FACE_OUTER_BOUND('',#122,.T.);
#101=FACE_OUTER_BOUND('',#123,.T.);
#102=FACE_OUTER_BOUND('',#124,.T.);
#103=FACE_OUTER_BOUND('',#125,.T.);
#104=FACE_OUTER_BOUND('',#127,.T.);
#105=FACE_OUTER_BOUND('',#128,.T.);
#106=FACE_OUTER_BOUND('',#130,.T.);
#107=FACE_OUTER_BOUND('',#131,.T.);
#108=FACE_OUTER_BOUND('',#132,.T.);
#109=FACE_OUTER_BOUND('',#133,.T.);
#110=FACE_OUTER_BOUND('',#135,.T.);
#111=FACE_OUTER_BOUND('',#140,.T.);
#112=FACE_OUTER_BOUND('',#142,.T.);
#113=FACE_OUTER_BOUND('',#143,.T.);
#114=FACE_OUTER_BOUND('',#144,.T.);
#115=FACE_OUTER_BOUND('',#146,.T.);
#116=FACE_OUTER_BOUND('',#147,.T.);
#117=FACE_OUTER_BOUND('',#149,.T.);
#118=FACE_OUTER_BOUND('',#150,.T.);
#119=FACE_OUTER_BOUND('',#151,.T.);
#120=EDGE_LOOP('',(#246));
#121=EDGE_LOOP('',(#247,#248,#249,#250,#251));
#122=EDGE_LOOP('',(#252));
#123=EDGE_LOOP('',(#253,#254,#255,#256,#257));
#124=EDGE_LOOP('',(#258,#259,#260,#261,#262));
#125=EDGE_LOOP('',(#263));
#126=EDGE_LOOP('',(#264));
#127=EDGE_LOOP('',(#265,#266,#267,#268,#269));
#128=EDGE_LOOP('',(#270));
#129=EDGE_LOOP('',(#271));
#130=EDGE_LOOP('',(#272,#273,#274,#275,#276));
#131=EDGE_LOOP('',(#277,#278,#279,#280,#281));
#132=EDGE_LOOP('',(#282,#283,#284,#285));
#133=EDGE_LOOP('',(#286));
#134=EDGE_LOOP('',(#287));
#135=EDGE_LOOP('',(#288,#289,#290,#291));
#136=EDGE_LOOP('',(#292,#293));
#137=EDGE_LOOP('',(#294,#295));
#138=EDGE_LOOP('',(#296,#297));
#139=EDGE_LOOP('',(#298,#299));
#140=EDGE_LOOP('',(#300));
#141=EDGE_LOOP('',(#301));
#142=EDGE_LOOP('',(#302,#303,#304,#305));
#143=EDGE_LOOP('',(#306,#307,#308,#309));
#144=EDGE_LOOP('',(#310,#311,#312,#313));
#145=EDGE_LOOP('',(#314,#315));
#146=EDGE_LOOP('',(#316,#317,#318,#319));
#147=EDGE_LOOP('',(#320,#321,#322,#323));
#148=EDGE_LOOP('',(#324,#325));
#149=EDGE_LOOP('',(#326,#327,#328,#329));
#150=EDGE_LOOP('',(#330,#331,#332,#333));
#151=EDGE_LOOP('',(#334,#335,#336,#337));
#152=CIRCLE('',#382,2.5);
#153=CIRCLE('',#384,2.5);
#154=CIRCLE('',#388,4.);
#155=CIRCLE('',#390,2.);
#156=CIRCLE('',#392,4.);
#157=CIRCLE('',#394,2.);
#158=CIRCLE('',#398,7.45000000000337);
#159=CIRCLE('',#399,7.45000000000337);
#160=CIRCLE('',#401,17.5);
#161=CIRCLE('',#403,17.5);
#162=CIRCLE('',#405,7.44999999989742);
#163=CIRCLE('',#407,7.44999999989742);
#164=CIRCLE('',#409,5.74999999987498);
#165=CIRCLE('',#411,5.74999999987607);
#166=CIRCLE('',#413,3.49999999999998);
#167=CIRCLE('',#415,3.49999999999996);
#168=CIRCLE('',#417,5.74999999987547);
#169=CIRCLE('',#419,5.74999999987434);
#170=VERTEX_POINT('',#533);
#171=VERTEX_POINT('',#536);
#172=VERTEX_POINT('',#537);
#173=VERTEX_POINT('',#575);
#174=VERTEX_POINT('',#580);
#175=VERTEX_POINT('',#581);
#176=VERTEX_POINT('',#621);
#177=VERTEX_POINT('',#622);
#178=VERTEX_POINT('',#660);
#179=VERTEX_POINT('',#664);
#180=VERTEX_POINT('',#667);
#181=VERTEX_POINT('',#668);
#182=VERTEX_POINT('',#706);
#183=VERTEX_POINT('',#710);
#184=VERTEX_POINT('',#713);
#185=VERTEX_POINT('',#715);
#186=VERTEX_POINT('',#753);
#187=VERTEX_POINT('',#755);
#188=VERTEX_POINT('',#793);
#189=VERTEX_POINT('',#795);
#190=VERTEX_POINT('',#799);
#191=VERTEX_POINT('',#802);
#192=VERTEX_POINT('',#806);
#193=VERTEX_POINT('',#809);
#194=VERTEX_POINT('',#813);
#195=VERTEX_POINT('',#817);
#196=VERTEX_POINT('',#821);
#197=VERTEX_POINT('',#825);
#198=VERTEX_POINT('',#829);
#199=VERTEX_POINT('',#833);
#200=EDGE_CURVE('',#170,#170,#152,.T.);
#201=EDGE_CURVE('',#171,#172,#74,.T.);
#202=EDGE_CURVE('',#172,#171,#75,.T.);
#203=EDGE_CURVE('',#172,#173,#42,.T.);
#204=EDGE_CURVE('',#173,#173,#153,.T.);
#205=EDGE_CURVE('',#174,#175,#76,.T.);
#206=EDGE_CURVE('',#175,#174,#77,.T.);
#207=EDGE_CURVE('',#175,#170,#43,.T.);
#208=EDGE_CURVE('',#176,#177,#78,.T.);
#209=EDGE_CURVE('',#177,#176,#79,.T.);
#210=EDGE_CURVE('',#177,#178,#44,.T.);
#211=EDGE_CURVE('',#178,#178,#154,.T.);
#212=EDGE_CURVE('',#179,#179,#155,.T.);
#213=EDGE_CURVE('',#180,#181,#80,.T.);
#214=EDGE_CURVE('',#181,#180,#81,.T.);
#215=EDGE_CURVE('',#181,#182,#45,.T.);
#216=EDGE_CURVE('',#182,#182,#156,.T.);
#217=EDGE_CURVE('',#183,#183,#157,.T.);
#218=EDGE_CURVE('',#179,#184,#46,.T.);
#219=EDGE_CURVE('',#185,#184,#82,.T.);
#220=EDGE_CURVE('',#184,#185,#83,.T.);
#221=EDGE_CURVE('',#183,#186,#47,.T.);
#222=EDGE_CURVE('',#187,#186,#84,.T.);
#223=EDGE_CURVE('',#186,#187,#85,.T.);
#224=EDGE_CURVE('',#188,#188,#158,.F.);
#225=EDGE_CURVE('',#188,#189,#48,.T.);
#226=EDGE_CURVE('',#189,#189,#159,.F.);
#227=EDGE_CURVE('',#190,#190,#160,.T.);
#228=EDGE_CURVE('',#191,#191,#161,.T.);
#229=EDGE_CURVE('',#191,#190,#49,.T.);
#230=EDGE_CURVE('',#192,#192,#162,.T.);
#231=EDGE_CURVE('',#192,#193,#50,.T.);
#232=EDGE_CURVE('',#193,#193,#163,.T.);
#233=EDGE_CURVE('',#193,#194,#51,.T.);
#234=EDGE_CURVE('',#194,#194,#164,.T.);
#235=EDGE_CURVE('',#194,#195,#52,.T.);
#236=EDGE_CURVE('',#195,#195,#165,.T.);
#237=EDGE_CURVE('',#195,#196,#53,.T.);
#238=EDGE_CURVE('',#196,#196,#166,.T.);
#239=EDGE_CURVE('',#196,#197,#54,.T.);
#240=EDGE_CURVE('',#197,#197,#167,.T.);
#241=EDGE_CURVE('',#197,#198,#55,.T.);
#242=EDGE_CURVE('',#198,#198,#168,.T.);
#243=EDGE_CURVE('',#198,#199,#56,.T.);
#244=EDGE_CURVE('',#199,#199,#169,.T.);
#245=EDGE_CURVE('',#199,#188,#57,.T.);
#246=ORIENTED_EDGE('',*,*,#200,.F.);
#247=ORIENTED_EDGE('',*,*,#201,.F.);
#248=ORIENTED_EDGE('',*,*,#202,.F.);
#249=ORIENTED_EDGE('',*,*,#203,.T.);
#250=ORIENTED_EDGE('',*,*,#204,.T.);
#251=ORIENTED_EDGE('',*,*,#203,.F.);
#252=ORIENTED_EDGE('',*,*,#204,.F.);
#253=ORIENTED_EDGE('',*,*,#205,.F.);
#254=ORIENTED_EDGE('',*,*,#206,.F.);
#255=ORIENTED_EDGE('',*,*,#207,.T.);
#256=ORIENTED_EDGE('',*,*,#200,.T.);
#257=ORIENTED_EDGE('',*,*,#207,.F.);
#258=ORIENTED_EDGE('',*,*,#208,.F.);
#259=ORIENTED_EDGE('',*,*,#209,.F.);
#260=ORIENTED_EDGE('',*,*,#210,.T.);
#261=ORIENTED_EDGE('',*,*,#211,.T.);
#262=ORIENTED_EDGE('',*,*,#210,.F.);
#263=ORIENTED_EDGE('',*,*,#211,.F.);
#264=ORIENTED_EDGE('',*,*,#212,.F.);
#265=ORIENTED_EDGE('',*,*,#213,.F.);
#266=ORIENTED_EDGE('',*,*,#214,.F.);
#267=ORIENTED_EDGE('',*,*,#215,.T.);
#268=ORIENTED_EDGE('',*,*,#216,.T.);
#269=ORIENTED_EDGE('',*,*,#215,.F.);
#270=ORIENTED_EDGE('',*,*,#216,.F.);
#271=ORIENTED_EDGE('',*,*,#217,.F.);
#272=ORIENTED_EDGE('',*,*,#212,.T.);
#273=ORIENTED_EDGE('',*,*,#218,.T.);
#274=ORIENTED_EDGE('',*,*,#219,.F.);
#275=ORIENTED_EDGE('',*,*,#220,.F.);
#276=ORIENTED_EDGE('',*,*,#218,.F.);
#277=ORIENTED_EDGE('',*,*,#217,.T.);
#278=ORIENTED_EDGE('',*,*,#221,.T.);
#279=ORIENTED_EDGE('',*,*,#222,.F.);
#280=ORIENTED_EDGE('',*,*,#223,.F.);
#281=ORIENTED_EDGE('',*,*,#221,.F.);
#282=ORIENTED_EDGE('',*,*,#224,.T.);
#283=ORIENTED_EDGE('',*,*,#225,.T.);
#284=ORIENTED_EDGE('',*,*,#226,.F.);
#285=ORIENTED_EDGE('',*,*,#225,.F.);
#286=ORIENTED_EDGE('',*,*,#227,.F.);
#287=ORIENTED_EDGE('',*,*,#226,.T.);
#288=ORIENTED_EDGE('',*,*,#228,.F.);
#289=ORIENTED_EDGE('',*,*,#229,.T.);
#290=ORIENTED_EDGE('',*,*,#227,.T.);
#291=ORIENTED_EDGE('',*,*,#229,.F.);
#292=ORIENTED_EDGE('',*,*,#201,.T.);
#293=ORIENTED_EDGE('',*,*,#202,.T.);
#294=ORIENTED_EDGE('',*,*,#205,.T.);
#295=ORIENTED_EDGE('',*,*,#206,.T.);
#296=ORIENTED_EDGE('',*,*,#209,.T.);
#297=ORIENTED_EDGE('',*,*,#208,.T.);
#298=ORIENTED_EDGE('',*,*,#214,.T.);
#299=ORIENTED_EDGE('',*,*,#213,.T.);
#300=ORIENTED_EDGE('',*,*,#228,.T.);
#301=ORIENTED_EDGE('',*,*,#230,.F.);
#302=ORIENTED_EDGE('',*,*,#230,.T.);
#303=ORIENTED_EDGE('',*,*,#231,.T.);
#304=ORIENTED_EDGE('',*,*,#232,.F.);
#305=ORIENTED_EDGE('',*,*,#231,.F.);
#306=ORIENTED_EDGE('',*,*,#232,.T.);
#307=ORIENTED_EDGE('',*,*,#233,.T.);
#308=ORIENTED_EDGE('',*,*,#234,.F.);
#309=ORIENTED_EDGE('',*,*,#233,.F.);
#310=ORIENTED_EDGE('',*,*,#234,.T.);
#311=ORIENTED_EDGE('',*,*,#235,.T.);
#312=ORIENTED_EDGE('',*,*,#236,.F.);
#313=ORIENTED_EDGE('',*,*,#235,.F.);
#314=ORIENTED_EDGE('',*,*,#222,.T.);
#315=ORIENTED_EDGE('',*,*,#223,.T.);
#316=ORIENTED_EDGE('',*,*,#236,.T.);
#317=ORIENTED_EDGE('',*,*,#237,.T.);
#318=ORIENTED_EDGE('',*,*,#238,.F.);
#319=ORIENTED_EDGE('',*,*,#237,.F.);
#320=ORIENTED_EDGE('',*,*,#238,.T.);
#321=ORIENTED_EDGE('',*,*,#239,.T.);
#322=ORIENTED_EDGE('',*,*,#240,.F.);
#323=ORIENTED_EDGE('',*,*,#239,.F.);
#324=ORIENTED_EDGE('',*,*,#219,.T.);
#325=ORIENTED_EDGE('',*,*,#220,.T.);
#326=ORIENTED_EDGE('',*,*,#240,.T.);
#327=ORIENTED_EDGE('',*,*,#241,.T.);
#328=ORIENTED_EDGE('',*,*,#242,.F.);
#329=ORIENTED_EDGE('',*,*,#241,.F.);
#330=ORIENTED_EDGE('',*,*,#242,.T.);
#331=ORIENTED_EDGE('',*,*,#243,.T.);
#332=ORIENTED_EDGE('',*,*,#244,.F.);
#333=ORIENTED_EDGE('',*,*,#243,.F.);
#334=ORIENTED_EDGE('',*,*,#244,.T.);
#335=ORIENTED_EDGE('',*,*,#245,.T.);
#336=ORIENTED_EDGE('',*,*,#224,.F.);
#337=ORIENTED_EDGE('',*,*,#245,.F.);
#338=PLANE('',#381);
#339=PLANE('',#385);
#340=PLANE('',#389);
#341=PLANE('',#393);
#342=PLANE('',#400);
#343=PLANE('',#404);
#344=ADVANCED_FACE('',(#98),#338,.T.);
#345=ADVANCED_FACE('',(#99),#86,.F.);
#346=ADVANCED_FACE('',(#100),#339,.T.);
#347=ADVANCED_FACE('',(#101),#87,.F.);
#348=ADVANCED_FACE('',(#102),#88,.F.);
#349=ADVANCED_FACE('',(#103,#32),#340,.T.);
#350=ADVANCED_FACE('',(#104),#89,.F.);
#351=ADVANCED_FACE('',(#105,#33),#341,.T.);
#352=ADVANCED_FACE('',(#106),#90,.F.);
#353=ADVANCED_FACE('',(#107),#91,.F.);
#354=ADVANCED_FACE('',(#108),#92,.F.);
#355=ADVANCED_FACE('',(#109,#34),#342,.T.);
#356=ADVANCED_FACE('',(#110,#35,#36,#37,#38),#93,.T.);
#357=ADVANCED_FACE('',(#111,#39),#343,.T.);
#358=ADVANCED_FACE('',(#112),#94,.F.);
#359=ADVANCED_FACE('',(#113),#28,.F.);
#360=ADVANCED_FACE('',(#114,#40),#95,.F.);
#361=ADVANCED_FACE('',(#115),#29,.F.);
#362=ADVANCED_FACE('',(#116,#41),#96,.F.);
#363=ADVANCED_FACE('',(#117),#30,.F.);
#364=ADVANCED_FACE('',(#118),#97,.F.);
#365=ADVANCED_FACE('',(#119),#31,.F.);
#366=CLOSED_SHELL('',(#344,#345,#346,#347,#348,#349,#350,#351,#352,#353,
#354,#355,#356,#357,#358,#359,#360,#361,#362,#363,#364,#365));
#367=DERIVED_UNIT_ELEMENT(#369,1.);
#368=DERIVED_UNIT_ELEMENT(#848,-3.);
#369=(
MASS_UNIT()
NAMED_UNIT(*)
SI_UNIT(.KILO.,.GRAM.)
);
#370=DERIVED_UNIT((#367,#368));
#371=MEASURE_REPRESENTATION_ITEM('density measure',
POSITIVE_RATIO_MEASURE(7850.),#370);
#372=PROPERTY_DEFINITION_REPRESENTATION(#377,#374);
#373=PROPERTY_DEFINITION_REPRESENTATION(#378,#375);
#374=REPRESENTATION('material name',(#376),#845);
#375=REPRESENTATION('density',(#371),#845);
#376=DESCRIPTIVE_REPRESENTATION_ITEM('Steel','Steel');
#377=PROPERTY_DEFINITION('material property','material name',#861);
#378=PROPERTY_DEFINITION('material property','density of part',#861);
#379=AXIS2_PLACEMENT_3D('',#530,#424,#425);
#380=AXIS2_PLACEMENT_3D('',#531,#426,#427);
#381=AXIS2_PLACEMENT_3D('',#532,#428,#429);
#382=AXIS2_PLACEMENT_3D('',#534,#430,#431);
#383=AXIS2_PLACEMENT_3D('',#535,#432,#433);
#384=AXIS2_PLACEMENT_3D('',#577,#435,#436);
#385=AXIS2_PLACEMENT_3D('',#578,#437,#438);
#386=AXIS2_PLACEMENT_3D('',#579,#439,#440);
#387=AXIS2_PLACEMENT_3D('',#620,#442,#443);
#388=AXIS2_PLACEMENT_3D('',#662,#445,#446);
#389=AXIS2_PLACEMENT_3D('',#663,#447,#448);
#390=AXIS2_PLACEMENT_3D('',#665,#449,#450);
#391=AXIS2_PLACEMENT_3D('',#666,#451,#452);
#392=AXIS2_PLACEMENT_3D('',#708,#454,#455);
#393=AXIS2_PLACEMENT_3D('',#709,#456,#457);
#394=AXIS2_PLACEMENT_3D('',#711,#458,#459);
#395=AXIS2_PLACEMENT_3D('',#712,#460,#461);
#396=AXIS2_PLACEMENT_3D('',#752,#463,#464);
#397=AXIS2_PLACEMENT_3D('',#792,#466,#467);
#398=AXIS2_PLACEMENT_3D('',#794,#468,#469);
#399=AXIS2_PLACEMENT_3D('',#797,#471,#472);
#400=AXIS2_PLACEMENT_3D('',#798,#473,#474);
#401=AXIS2_PLACEMENT_3D('',#800,#475,#476);
#402=AXIS2_PLACEMENT_3D('',#801,#477,#478);
#403=AXIS2_PLACEMENT_3D('',#803,#479,#480);
#404=AXIS2_PLACEMENT_3D('',#805,#482,#483);
#405=AXIS2_PLACEMENT_3D('',#807,#484,#485);
#406=AXIS2_PLACEMENT_3D('',#808,#486,#487);
#407=AXIS2_PLACEMENT_3D('',#811,#489,#490);
#408=AXIS2_PLACEMENT_3D('',#812,#491,#492);
#409=AXIS2_PLACEMENT_3D('',#815,#494,#495);
#410=AXIS2_PLACEMENT_3D('',#816,#496,#497);
#411=AXIS2_PLACEMENT_3D('',#819,#499,#500);
#412=AXIS2_PLACEMENT_3D('',#820,#501,#502);
#413=AXIS2_PLACEMENT_3D('',#823,#504,#505);
#414=AXIS2_PLACEMENT_3D('',#824,#506,#507);
#415=AXIS2_PLACEMENT_3D('',#827,#509,#510);
#416=AXIS2_PLACEMENT_3D('',#828,#511,#512);
#417=AXIS2_PLACEMENT_3D('',#831,#514,#515);
#418=AXIS2_PLACEMENT_3D('',#832,#516,#517);
#419=AXIS2_PLACEMENT_3D('',#835,#519,#520);
#420=AXIS2_PLACEMENT_3D('',#836,#521,#522);
#421=AXIS2_PLACEMENT_3D('',#838,#524,#525);
#422=AXIS2_PLACEMENT_3D('',#839,#526,#527);
#423=AXIS2_PLACEMENT_3D('',#840,#528,#529);
#424=DIRECTION('axis',(0.,0.,1.));
#425=DIRECTION('refdir',(1.,0.,0.));
#426=DIRECTION('axis',(0.,0.,1.));
#427=DIRECTION('refdir',(1.,0.,0.));
#428=DIRECTION('center_axis',(0.,1.,0.));
#429=DIRECTION('ref_axis',(1.,0.,0.));
#430=DIRECTION('center_axis',(0.,-1.,0.));
#431=DIRECTION('ref_axis',(1.,0.,0.));
#432=DIRECTION('center_axis',(0.,-1.,0.));
#433=DIRECTION('ref_axis',(1.,0.,0.));
#434=DIRECTION('',(0.,-1.,0.));
#435=DIRECTION('center_axis',(0.,-1.,0.));
#436=DIRECTION('ref_axis',(1.,0.,0.));
#437=DIRECTION('center_axis',(0.,1.,0.));
#438=DIRECTION('ref_axis',(1.,0.,0.));
#439=DIRECTION('center_axis',(0.,-1.,0.));
#440=DIRECTION('ref_axis',(1.,0.,0.));
#441=DIRECTION('',(0.,-1.,0.));
#442=DIRECTION('center_axis',(0.,-1.,0.));
#443=DIRECTION('ref_axis',(1.,0.,0.));
#444=DIRECTION('',(0.,-1.,0.));
#445=DIRECTION('center_axis',(0.,-1.,0.));
#446=DIRECTION('ref_axis',(1.,0.,0.));
#447=DIRECTION('center_axis',(0.,1.,0.));
#448=DIRECTION('ref_axis',(1.,0.,0.));
#449=DIRECTION('center_axis',(0.,1.,0.));
#450=DIRECTION('ref_axis',(1.,0.,0.));
#451=DIRECTION('center_axis',(0.,-1.,0.));
#452=DIRECTION('ref_axis',(1.,0.,0.));
#453=DIRECTION('',(0.,-1.,0.));
#454=DIRECTION('center_axis',(0.,-1.,0.));
#455=DIRECTION('ref_axis',(1.,0.,0.));
#456=DIRECTION('center_axis',(0.,1.,0.));
#457=DIRECTION('ref_axis',(1.,0.,0.));
#458=DIRECTION('center_axis',(0.,1.,0.));
#459=DIRECTION('ref_axis',(1.,0.,0.));
#460=DIRECTION('center_axis',(0.,-1.,0.));
#461=DIRECTION('ref_axis',(1.,0.,0.));
#462=DIRECTION('',(0.,-1.,0.));
#463=DIRECTION('center_axis',(0.,-1.,0.));
#464=DIRECTION('ref_axis',(1.,0.,0.));
#465=DIRECTION('',(0.,-1.,0.));
#466=DIRECTION('center_axis',(1.,-7.70465449021494E-18,0.));
#467=DIRECTION('ref_axis',(0.,1.,0.));
#468=DIRECTION('center_axis',(-1.,7.70465449021494E-18,0.));
#469=DIRECTION('ref_axis',(0.,1.,0.));
#470=DIRECTION('',(-1.,7.70465449021494E-18,0.));
#471=DIRECTION('center_axis',(-1.,7.70465449021494E-18,0.));
#472=DIRECTION('ref_axis',(0.,1.,0.));
#473=DIRECTION('center_axis',(-1.,7.70465449021494E-18,0.));
#474=DIRECTION('ref_axis',(0.,0.,1.));
#475=DIRECTION('center_axis',(1.,-7.70465449021494E-18,0.));
#476=DIRECTION('ref_axis',(0.,0.,-1.));
#477=DIRECTION('center_axis',(1.,-7.70465449021494E-18,0.));
#478=DIRECTION('ref_axis',(0.,1.,0.));
#479=DIRECTION('center_axis',(1.,-7.70465449021494E-18,0.));
#480=DIRECTION('ref_axis',(0.,0.,-1.));
#481=DIRECTION('',(-1.,7.70465449021494E-18,0.));
#482=DIRECTION('center_axis',(1.,-7.70465449021494E-18,0.));
#483=DIRECTION('ref_axis',(0.,0.,-1.));
#484=DIRECTION('center_axis',(1.,-7.70465449021494E-18,0.));
#485=DIRECTION('ref_axis',(0.,1.,0.));
#486=DIRECTION('center_axis',(1.,-7.70465449021494E-18,0.));
#487=DIRECTION('ref_axis',(0.,1.,0.));
#488=DIRECTION('',(-1.,7.70465449021494E-18,0.));
#489=DIRECTION('center_axis',(1.,-7.70465449021494E-18,0.));
#490=DIRECTION('ref_axis',(0.,1.,0.));
#491=DIRECTION('center_axis',(1.,-7.70465449021494E-18,0.));
#492=DIRECTION('ref_axis',(0.,1.,0.));
#493=DIRECTION('',(-0.642787609731218,0.766044443081488,9.38133875224361E-17));
#494=DIRECTION('center_axis',(1.,-7.70465449021494E-18,0.));
#495=DIRECTION('ref_axis',(0.,0.,-1.));
#496=DIRECTION('center_axis',(1.,-7.70465449021494E-18,0.));
#497=DIRECTION('ref_axis',(0.,1.,0.));
#498=DIRECTION('',(-1.,7.70465449021494E-18,0.));
#499=DIRECTION('center_axis',(1.,-7.70465449021494E-18,0.));
#500=DIRECTION('ref_axis',(0.,0.,-1.));
#501=DIRECTION('center_axis',(1.,-7.70465449021494E-18,0.));
#502=DIRECTION('ref_axis',(0.,1.,0.));
#503=DIRECTION('',(-0.939692620792321,0.342020143308051,4.18853873746123E-17));
#504=DIRECTION('center_axis',(1.,-7.70465449021494E-18,0.));
#505=DIRECTION('ref_axis',(0.,0.,-1.));
#506=DIRECTION('center_axis',(1.,-7.70465449021494E-18,0.));
#507=DIRECTION('ref_axis',(0.,1.,0.));
#508=DIRECTION('',(-1.,7.70465449021494E-18,0.));
#509=DIRECTION('center_axis',(1.,-7.70465449021494E-18,0.));
#510=DIRECTION('ref_axis',(0.,0.,-1.));
#511=DIRECTION('center_axis',(-1.,7.70465449021494E-18,0.));
#512=DIRECTION('ref_axis',(0.,1.,0.));
#513=DIRECTION('',(-0.939692620792349,-0.342020143307972,-4.18853873746027E-17));
#514=DIRECTION('center_axis',(1.,-7.70465449021494E-18,0.));
#515=DIRECTION('ref_axis',(0.,0.,-1.));
#516=DIRECTION('center_axis',(1.,-7.70465449021494E-18,0.));
#517=DIRECTION('ref_axis',(0.,1.,0.));
#518=DIRECTION('',(-1.,7.70465449021494E-18,0.));
#519=DIRECTION('center_axis',(1.,-7.70465449021494E-18,0.));
#520=DIRECTION('ref_axis',(0.,0.,-1.));
#521=DIRECTION('center_axis',(-1.,7.70465449021494E-18,0.));
#522=DIRECTION('ref_axis',(0.,1.,0.));
#523=DIRECTION('',(-0.64278760971382,-0.766044443096087,-9.38133875242239E-17));
#524=DIRECTION('',(0.,0.,1.));
#525=DIRECTION('',(1.,0.,0.));
#526=DIRECTION('',(0.,0.,1.));
#527=DIRECTION('',(1.,0.,0.));
#528=DIRECTION('center_axis',(0.,0.,1.));
#529=DIRECTION('ref_axis',(1.,0.,0.));
#530=CARTESIAN_POINT('',(0.,0.,0.));
#531=CARTESIAN_POINT('',(0.,0.,0.));
#532=CARTESIAN_POINT('Origin',(46.8320727422538,9.49999999999999,0.));
#533=CARTESIAN_POINT('',(44.3320727422538,9.49999999999999,3.06161699786838E-16));
#534=CARTESIAN_POINT('Origin',(46.8320727422538,9.49999999999999,0.));
#535=CARTESIAN_POINT('Origin',(30.6502485484605,17.5,0.));
#536=CARTESIAN_POINT('',(33.1502485484605,17.5,0.));
#537=CARTESIAN_POINT('',(28.1502485484605,17.5,3.06161699786838E-16));
#538=CARTESIAN_POINT('Ctrl Pts',(33.1502485484605,17.5,-2.77555756156289E-16));
#539=CARTESIAN_POINT('Ctrl Pts',(33.1502485484605,17.5,0.314365670692173));
#540=CARTESIAN_POINT('Ctrl Pts',(33.0873345381433,17.4906655718613,0.649393519500214));
#541=CARTESIAN_POINT('Ctrl Pts',(32.8320658852162,17.4569275918887,1.26521663951777));
#542=CARTESIAN_POINT('Ctrl Pts',(32.6397348917201,17.4329975397472,1.54604756267309));
#543=CARTESIAN_POINT('Ctrl Pts',(32.1962929368916,17.3879728309177,1.98948951750163));
#544=CARTESIAN_POINT('Ctrl Pts',(31.9154633863033,17.3639352991438,2.18181802150233));
#545=CARTESIAN_POINT('Ctrl Pts',(31.2996449436411,17.3299508506322,2.43708485974348));
#546=CARTESIAN_POINT('Ctrl Pts',(30.9646187197636,17.3205080756888,2.5));
#547=CARTESIAN_POINT('Ctrl Pts',(30.3358783771574,17.3205080756888,2.5));
#548=CARTESIAN_POINT('Ctrl Pts',(30.0008521532799,17.3299508506322,2.43708485974348));
#549=CARTESIAN_POINT('Ctrl Pts',(29.3850337106177,17.3639352991438,2.18181802150233));
#550=CARTESIAN_POINT('Ctrl Pts',(29.1042041600294,17.3879728309177,1.98948951750163));
#551=CARTESIAN_POINT('Ctrl Pts',(28.6607622052008,17.4329975397472,1.54604756267309));
#552=CARTESIAN_POINT('Ctrl Pts',(28.4684312117048,17.4569275918887,1.26521663951777));
#553=CARTESIAN_POINT('Ctrl Pts',(28.2131625587777,17.4906655718613,0.649393519500213));
#554=CARTESIAN_POINT('Ctrl Pts',(28.1502485484605,17.5,0.314365670692173));
#555=CARTESIAN_POINT('Ctrl Pts',(28.1502485484605,17.5,3.46944695195361E-16));
#556=CARTESIAN_POINT('Ctrl Pts',(28.1502485484605,17.5,1.38777878078145E-16));
#557=CARTESIAN_POINT('Ctrl Pts',(28.1502485484605,17.5,-0.314365670692172));
#558=CARTESIAN_POINT('Ctrl Pts',(28.2131625587777,17.4906655718613,-0.649393519500213));
#559=CARTESIAN_POINT('Ctrl Pts',(28.4684312117048,17.4569275918887,-1.26521663951777));
#560=CARTESIAN_POINT('Ctrl Pts',(28.6607622052008,17.4329975397472,-1.54604756267309));
#561=CARTESIAN_POINT('Ctrl Pts',(29.1042041600294,17.3879728309177,-1.98948951750163));
#562=CARTESIAN_POINT('Ctrl Pts',(29.3850337106177,17.3639352991438,-2.18181802150233));
#563=CARTESIAN_POINT('Ctrl Pts',(30.0008521532799,17.3299508506322,-2.43708485974348));
#564=CARTESIAN_POINT('Ctrl Pts',(30.3358783771574,17.3205080756888,-2.5));
#565=CARTESIAN_POINT('Ctrl Pts',(30.6502485484605,17.3205080756888,-2.5));
#566=CARTESIAN_POINT('Ctrl Pts',(30.9646187197636,17.3205080756888,-2.5));
#567=CARTESIAN_POINT('Ctrl Pts',(31.2996449436411,17.3299508506322,-2.43708485974348));
#568=CARTESIAN_POINT('Ctrl Pts',(31.9154633863033,17.3639352991438,-2.18181802150233));
#569=CARTESIAN_POINT('Ctrl Pts',(32.1962929368916,17.3879728309177,-1.98948951750163));
#570=CARTESIAN_POINT('Ctrl Pts',(32.6397348917201,17.4329975397472,-1.54604756267309));
#571=CARTESIAN_POINT('Ctrl Pts',(32.8320658852162,17.4569275918887,-1.26521663951777));
#572=CARTESIAN_POINT('Ctrl Pts',(33.0873345381433,17.4906655718613,-0.649393519500214));
#573=CARTESIAN_POINT('Ctrl Pts',(33.1502485484605,17.5,-0.314365670692173));
#574=CARTESIAN_POINT('Ctrl Pts',(33.1502485484605,17.5,-3.46944695195361E-16));
#575=CARTESIAN_POINT('',(28.1502485484605,8.49999999999999,3.06161699786838E-16));
#576=CARTESIAN_POINT('',(28.1502485484605,17.5,-3.06161699786838E-16));
#577=CARTESIAN_POINT('Origin',(30.6502485484605,8.49999999999999,0.));
#578=CARTESIAN_POINT('Origin',(30.6502485484605,8.49999999999999,0.));
#579=CARTESIAN_POINT('Origin',(46.8320727422538,17.5,0.));
#580=CARTESIAN_POINT('',(49.3320727422538,17.5,0.));
#581=CARTESIAN_POINT('',(44.3320727422538,17.5,3.06161699786838E-16));
#582=CARTESIAN_POINT('Ctrl Pts',(49.3320727422538,17.5,-6.24500451351651E-16));
#583=CARTESIAN_POINT('Ctrl Pts',(49.3320727422538,17.5,0.314365670692172));
#584=CARTESIAN_POINT('Ctrl Pts',(49.2691587319367,17.4906655718613,0.649393519500213));
#585=CARTESIAN_POINT('Ctrl Pts',(49.0138900790096,17.4569275918887,1.26521663951777));
#586=CARTESIAN_POINT('Ctrl Pts',(48.8215590855135,17.4329975397472,1.54604756267309));
#587=CARTESIAN_POINT('Ctrl Pts',(48.3781171306849,17.3879728309177,1.98948951750163));
#588=CARTESIAN_POINT('Ctrl Pts',(48.0972875800966,17.3639352991438,2.18181802150233));
#589=CARTESIAN_POINT('Ctrl Pts',(47.4814691374344,17.3299508506322,2.43708485974348));
#590=CARTESIAN_POINT('Ctrl Pts',(47.1464429135569,17.3205080756888,2.5));
#591=CARTESIAN_POINT('Ctrl Pts',(46.5177025709507,17.3205080756888,2.5));
#592=CARTESIAN_POINT('Ctrl Pts',(46.1826763470733,17.3299508506322,2.43708485974348));
#593=CARTESIAN_POINT('Ctrl Pts',(45.5668579044111,17.3639352991438,2.18181802150233));
#594=CARTESIAN_POINT('Ctrl Pts',(45.2860283538227,17.3879728309177,1.98948951750163));
#595=CARTESIAN_POINT('Ctrl Pts',(44.8425863989942,17.4329975397472,1.54604756267309));
#596=CARTESIAN_POINT('Ctrl Pts',(44.6502554054981,17.4569275918887,1.26521663951777));
#597=CARTESIAN_POINT('Ctrl Pts',(44.394986752571,17.4906655718613,0.649393519500214));
#598=CARTESIAN_POINT('Ctrl Pts',(44.3320727422538,17.5,0.314365670692174));
#599=CARTESIAN_POINT('Ctrl Pts',(44.3320727422538,17.5,4.16333634234434E-16));
#600=CARTESIAN_POINT('Ctrl Pts',(44.3320727422538,17.5,3.46944695195361E-16));
#601=CARTESIAN_POINT('Ctrl Pts',(44.3320727422538,17.5,-0.314365670692173));
#602=CARTESIAN_POINT('Ctrl Pts',(44.394986752571,17.4906655718613,-0.649393519500213));
#603=CARTESIAN_POINT('Ctrl Pts',(44.6502554054981,17.4569275918887,-1.26521663951777));
#604=CARTESIAN_POINT('Ctrl Pts',(44.8425863989942,17.4329975397472,-1.54604756267309));
#605=CARTESIAN_POINT('Ctrl Pts',(45.2860283538227,17.3879728309177,-1.98948951750163));
#606=CARTESIAN_POINT('Ctrl Pts',(45.5668579044111,17.3639352991438,-2.18181802150234));
#607=CARTESIAN_POINT('Ctrl Pts',(46.1826763470733,17.3299508506322,-2.43708485974348));
#608=CARTESIAN_POINT('Ctrl Pts',(46.5177025709507,17.3205080756888,-2.5));
#609=CARTESIAN_POINT('Ctrl Pts',(46.8320727422538,17.3205080756888,-2.5));
#610=CARTESIAN_POINT('Ctrl Pts',(47.1464429135569,17.3205080756888,-2.5));
#611=CARTESIAN_POINT('Ctrl Pts',(47.4814691374344,17.3299508506322,-2.43708485974348));
#612=CARTESIAN_POINT('Ctrl Pts',(48.0972875800966,17.3639352991438,-2.18181802150233));
#613=CARTESIAN_POINT('Ctrl Pts',(48.3781171306849,17.3879728309177,-1.98948951750163));
#614=CARTESIAN_POINT('Ctrl Pts',(48.8215590855135,17.4329975397472,-1.54604756267309));
#615=CARTESIAN_POINT('Ctrl Pts',(49.0138900790096,17.4569275918887,-1.26521663951777));
#616=CARTESIAN_POINT('Ctrl Pts',(49.2691587319367,17.4906655718613,-0.649393519500213));
#617=CARTESIAN_POINT('Ctrl Pts',(49.3320727422538,17.5,-0.314365670692173));
#618=CARTESIAN_POINT('Ctrl Pts',(49.3320727422538,17.5,-2.08166817117217E-16));
#619=CARTESIAN_POINT('',(44.3320727422538,17.5,-3.06161699786838E-16));
#620=CARTESIAN_POINT('Origin',(22.6502485484605,17.5,0.));
#621=CARTESIAN_POINT('',(26.6502485484605,17.5,0.));
#622=CARTESIAN_POINT('',(18.6502485484605,17.5,4.89858719658941E-16));
#623=CARTESIAN_POINT('Ctrl Pts',(26.6502485484605,17.5,0.));
#624=CARTESIAN_POINT('Ctrl Pts',(26.6502485484605,17.5,0.504148401209348));
#625=CARTESIAN_POINT('Ctrl Pts',(26.549130527184,17.4760230775207,1.04069865747243));
#626=CARTESIAN_POINT('Ctrl Pts',(26.1403556724935,17.3893918771397,2.02570641024877));
#627=CARTESIAN_POINT('Ctrl Pts',(25.8327956832258,17.3279129998669,2.47430711472704));
#628=CARTESIAN_POINT('Ctrl Pts',(25.124521406246,17.2119134679511,3.1825813917069));
#629=CARTESIAN_POINT('Ctrl Pts',(24.6759350967904,17.1497177306621,3.49011461109887));
#630=CARTESIAN_POINT('Ctrl Pts',(23.6909779248619,17.0614340567807,3.89886998602643));
#631=CARTESIAN_POINT('Ctrl Pts',(23.1544457200918,17.0367250374008,4.));
#632=CARTESIAN_POINT('Ctrl Pts',(22.1460513768292,17.0367250374008,4.));
#633=CARTESIAN_POINT('Ctrl Pts',(21.609519172059,17.0614340567807,3.89886998602643));
#634=CARTESIAN_POINT('Ctrl Pts',(20.6245620001305,17.1497177306621,3.49011461109887));
#635=CARTESIAN_POINT('Ctrl Pts',(20.175975690675,17.2119134679511,3.1825813917069));
#636=CARTESIAN_POINT('Ctrl Pts',(19.4677014136952,17.3279129998669,2.47430711472704));
#637=CARTESIAN_POINT('Ctrl Pts',(19.1601414244275,17.3893918771397,2.02570641024877));
#638=CARTESIAN_POINT('Ctrl Pts',(18.751366569737,17.4760230775207,1.04069865747243));
#639=CARTESIAN_POINT('Ctrl Pts',(18.6502485484605,17.5,0.504148401209349));
#640=CARTESIAN_POINT('Ctrl Pts',(18.6502485484605,17.5,6.93889390390723E-16));
#641=CARTESIAN_POINT('Ctrl Pts',(18.6502485484605,17.5,1.38777878078145E-16));
#642=CARTESIAN_POINT('Ctrl Pts',(18.6502485484605,17.5,-0.504148401209348));
#643=CARTESIAN_POINT('Ctrl Pts',(18.751366569737,17.4760230775207,-1.04069865747243));
#644=CARTESIAN_POINT('Ctrl Pts',(19.1601414244275,17.3893918771397,-2.02570641024877));
#645=CARTESIAN_POINT('Ctrl Pts',(19.4677014136952,17.3279129998669,-2.47430711472704));
#646=CARTESIAN_POINT('Ctrl Pts',(20.175975690675,17.2119134679511,-3.1825813917069));
#647=CARTESIAN_POINT('Ctrl Pts',(20.6245620001305,17.1497177306621,-3.49011461109886));
#648=CARTESIAN_POINT('Ctrl Pts',(21.609519172059,17.0614340567808,-3.89886998602643));
#649=CARTESIAN_POINT('Ctrl Pts',(22.1460513768292,17.0367250374008,-4.));
#650=CARTESIAN_POINT('Ctrl Pts',(22.6502485484605,17.0367250374008,-4.));
#651=CARTESIAN_POINT('Ctrl Pts',(23.1544457200918,17.0367250374008,-4.));
#652=CARTESIAN_POINT('Ctrl Pts',(23.6909779248619,17.0614340567807,-3.89886998602643));
#653=CARTESIAN_POINT('Ctrl Pts',(24.6759350967904,17.1497177306621,-3.49011461109887));
#654=CARTESIAN_POINT('Ctrl Pts',(25.124521406246,17.2119134679511,-3.1825813917069));
#655=CARTESIAN_POINT('Ctrl Pts',(25.8327956832258,17.3279129998669,-2.47430711472704));
#656=CARTESIAN_POINT('Ctrl Pts',(26.1403556724935,17.3893918771397,-2.02570641024877));
#657=CARTESIAN_POINT('Ctrl Pts',(26.549130527184,17.4760230775207,-1.04069865747243));
#658=CARTESIAN_POINT('Ctrl Pts',(26.6502485484605,17.5,-0.504148401209348));
#659=CARTESIAN_POINT('Ctrl Pts',(26.6502485484605,17.5,2.77555756156289E-16));
#660=CARTESIAN_POINT('',(18.6502485484605,10.5,4.89858719658941E-16));
#661=CARTESIAN_POINT('',(18.6502485484605,17.5,-4.89858719658941E-16));
#662=CARTESIAN_POINT('Origin',(22.6502485484605,10.5,0.));
#663=CARTESIAN_POINT('Origin',(22.6502485484605,10.5,0.));
#664=CARTESIAN_POINT('',(20.6502485484605,10.5,2.44929359829471E-16));
#665=CARTESIAN_POINT('Origin',(22.6502485484605,10.5,0.));
#666=CARTESIAN_POINT('Origin',(38.8320727422538,17.5,0.));
#667=CARTESIAN_POINT('',(42.8320727422538,17.5,0.));
#668=CARTESIAN_POINT('',(34.8320727422538,17.5,4.89858719658941E-16));
#669=CARTESIAN_POINT('Ctrl Pts',(42.8320727422538,17.5,8.32667268468867E-16));
#670=CARTESIAN_POINT('Ctrl Pts',(42.8320727422538,17.5,0.504148401209349));
#671=CARTESIAN_POINT('Ctrl Pts',(42.7309547209773,17.4760230775207,1.04069865747243));
#672=CARTESIAN_POINT('Ctrl Pts',(42.3221798662868,17.3893918771397,2.02570641024878));
#673=CARTESIAN_POINT('Ctrl Pts',(42.0146198770192,17.3279129998669,2.47430711472704));
#674=CARTESIAN_POINT('Ctrl Pts',(41.3063456000393,17.2119134679511,3.1825813917069));
#675=CARTESIAN_POINT('Ctrl Pts',(40.8577592905838,17.1497177306621,3.49011461109886));
#676=CARTESIAN_POINT('Ctrl Pts',(39.8728021186553,17.0614340567807,3.89886998602642));
#677=CARTESIAN_POINT('Ctrl Pts',(39.3362699138852,17.0367250374008,4.));
#678=CARTESIAN_POINT('Ctrl Pts',(38.3278755706225,17.0367250374008,4.));
#679=CARTESIAN_POINT('Ctrl Pts',(37.7913433658524,17.0614340567807,3.89886998602643));
#680=CARTESIAN_POINT('Ctrl Pts',(36.8063861939239,17.1497177306621,3.49011461109887));
#681=CARTESIAN_POINT('Ctrl Pts',(36.3577998844683,17.2119134679511,3.1825813917069));
#682=CARTESIAN_POINT('Ctrl Pts',(35.6495256074885,17.3279129998669,2.47430711472704));
#683=CARTESIAN_POINT('Ctrl Pts',(35.3419656182208,17.3893918771397,2.02570641024877));
#684=CARTESIAN_POINT('Ctrl Pts',(34.9331907635303,17.4760230775207,1.04069865747243));
#685=CARTESIAN_POINT('Ctrl Pts',(34.8320727422538,17.5,0.504148401209349));
#686=CARTESIAN_POINT('Ctrl Pts',(34.8320727422538,17.5,1.11022302462516E-15));
#687=CARTESIAN_POINT('Ctrl Pts',(34.8320727422538,17.5,-2.77555756156289E-16));
#688=CARTESIAN_POINT('Ctrl Pts',(34.8320727422538,17.5,-0.504148401209348));
#689=CARTESIAN_POINT('Ctrl Pts',(34.9331907635303,17.4760230775207,-1.04069865747243));
#690=CARTESIAN_POINT('Ctrl Pts',(35.3419656182208,17.3893918771397,-2.02570641024877));
#691=CARTESIAN_POINT('Ctrl Pts',(35.6495256074885,17.3279129998669,-2.47430711472704));
#692=CARTESIAN_POINT('Ctrl Pts',(36.3577998844683,17.2119134679511,-3.1825813917069));
#693=CARTESIAN_POINT('Ctrl Pts',(36.8063861939239,17.1497177306621,-3.49011461109886));
#694=CARTESIAN_POINT('Ctrl Pts',(37.7913433658524,17.0614340567807,-3.89886998602643));
#695=CARTESIAN_POINT('Ctrl Pts',(38.3278755706225,17.0367250374008,-4.));
#696=CARTESIAN_POINT('Ctrl Pts',(38.8320727422538,17.0367250374008,-4.));
#697=CARTESIAN_POINT('Ctrl Pts',(39.3362699138852,17.0367250374008,-4.));
#698=CARTESIAN_POINT('Ctrl Pts',(39.8728021186553,17.0614340567807,-3.89886998602642));
#699=CARTESIAN_POINT('Ctrl Pts',(40.8577592905838,17.1497177306621,-3.49011461109886));
#700=CARTESIAN_POINT('Ctrl Pts',(41.3063456000393,17.2119134679511,-3.1825813917069));
#701=CARTESIAN_POINT('Ctrl Pts',(42.0146198770192,17.3279129998669,-2.47430711472704));
#702=CARTESIAN_POINT('Ctrl Pts',(42.3221798662868,17.3893918771397,-2.02570641024878));
#703=CARTESIAN_POINT('Ctrl Pts',(42.7309547209773,17.4760230775207,-1.04069865747243));
#704=CARTESIAN_POINT('Ctrl Pts',(42.8320727422538,17.5,-0.504148401209348));
#705=CARTESIAN_POINT('Ctrl Pts',(42.8320727422538,17.5,1.38777878078145E-16));
#706=CARTESIAN_POINT('',(34.8320727422538,10.5,4.89858719658941E-16));
#707=CARTESIAN_POINT('',(34.8320727422538,17.5,-4.89858719658941E-16));
#708=CARTESIAN_POINT('Origin',(38.8320727422538,10.5,0.));
#709=CARTESIAN_POINT('Origin',(38.8320727422538,10.5,0.));
#710=CARTESIAN_POINT('',(36.8320727422538,10.5,2.44929359829471E-16));
#711=CARTESIAN_POINT('Origin',(38.8320727422538,10.5,0.));
#712=CARTESIAN_POINT('Origin',(22.6502485484605,17.5,0.));
#713=CARTESIAN_POINT('',(20.6502485484605,3.49999999999998,-1.22464679914735E-16));
#714=CARTESIAN_POINT('',(20.6502485484605,17.5,-2.44929359829471E-16));
#715=CARTESIAN_POINT('',(22.6502485484605,2.87228132326899,-2.));
#716=CARTESIAN_POINT('Ctrl Pts',(22.6502485484605,2.87228132326899,-2.));
#717=CARTESIAN_POINT('Ctrl Pts',(22.3914197203454,2.87228132326899,-2.));
#718=CARTESIAN_POINT('Ctrl Pts',(22.1213511863832,2.91097600884769,-1.94701024893193));
#719=CARTESIAN_POINT('Ctrl Pts',(21.6313928248715,3.03843905603269,-1.74141223037112));
#720=CARTESIAN_POINT('Ctrl Pts',(21.4107311303176,3.12439427148948,-1.58890970660328));
#721=CARTESIAN_POINT('Ctrl Pts',(21.0622282329192,3.27833709869429,-1.24040680920494));
#722=CARTESIAN_POINT('Ctrl Pts',(20.9090954555874,3.35769147483727,-1.01948212891677));
#723=CARTESIAN_POINT('Ctrl Pts',(20.7029574665772,3.46906620581126,-0.528219253684433));
#724=CARTESIAN_POINT('Ctrl Pts',(20.6502485484605,3.49999999999998,-0.257511111302632));
#725=CARTESIAN_POINT('Ctrl Pts',(20.6502485484605,3.49999999999998,-5.55111512312578E-16));
#726=CARTESIAN_POINT('Ctrl Pts',(20.6502485484605,3.49999999999998,-6.93889390390723E-17));
#727=CARTESIAN_POINT('Ctrl Pts',(20.6502485484605,3.49999999999998,0.257511111302632));
#728=CARTESIAN_POINT('Ctrl Pts',(20.7029574665772,3.46906620581126,0.528219253684433));
#729=CARTESIAN_POINT('Ctrl Pts',(20.9090954555874,3.35769147483727,1.01948212891677));
#730=CARTESIAN_POINT('Ctrl Pts',(21.0622282329192,3.2783370986943,1.24040680920494));
#731=CARTESIAN_POINT('Ctrl Pts',(21.4107311303176,3.12439427148948,1.58890970660328));
#732=CARTESIAN_POINT('Ctrl Pts',(21.6313928248715,3.03843905603269,1.74141223037112));
#733=CARTESIAN_POINT('Ctrl Pts',(22.1213511863832,2.91097600884769,1.94701024893192));
#734=CARTESIAN_POINT('Ctrl Pts',(22.3914197203454,2.87228132326899,2.));
#735=CARTESIAN_POINT('Ctrl Pts',(22.9090773765756,2.87228132326899,2.));
#736=CARTESIAN_POINT('Ctrl Pts',(23.1791459105378,2.91097600884769,1.94701024893192));
#737=CARTESIAN_POINT('Ctrl Pts',(23.6691042720495,3.03843905603269,1.74141223037112));
#738=CARTESIAN_POINT('Ctrl Pts',(23.8897659666034,3.12439427148948,1.58890970660328));
#739=CARTESIAN_POINT('Ctrl Pts',(24.2382688640017,3.27833709869429,1.24040680920494));
#740=CARTESIAN_POINT('Ctrl Pts',(24.3914016413336,3.35769147483727,1.01948212891677));
#741=CARTESIAN_POINT('Ctrl Pts',(24.5975396303438,3.46906620581126,0.528219253684434));
#742=CARTESIAN_POINT('Ctrl Pts',(24.6502485484605,3.49999999999998,0.257511111302632));
#743=CARTESIAN_POINT('Ctrl Pts',(24.6502485484605,3.49999999999998,-0.257511111302631));
#744=CARTESIAN_POINT('Ctrl Pts',(24.5975396303438,3.46906620581126,-0.528219253684433));
#745=CARTESIAN_POINT('Ctrl Pts',(24.3914016413336,3.35769147483727,-1.01948212891677));
#746=CARTESIAN_POINT('Ctrl Pts',(24.2382688640017,3.27833709869429,-1.24040680920494));
#747=CARTESIAN_POINT('Ctrl Pts',(23.8897659666034,3.12439427148948,-1.58890970660328));
#748=CARTESIAN_POINT('Ctrl Pts',(23.6691042720495,3.03843905603269,-1.74141223037112));
#749=CARTESIAN_POINT('Ctrl Pts',(23.1791459105378,2.91097600884769,-1.94701024893192));
#750=CARTESIAN_POINT('Ctrl Pts',(22.9090773765756,2.87228132326899,-2.));
#751=CARTESIAN_POINT('Ctrl Pts',(22.6502485484605,2.87228132326899,-2.));
#752=CARTESIAN_POINT('Origin',(38.8320727422538,17.5,0.));
#753=CARTESIAN_POINT('',(36.8320727422538,5.74999999987553,-2.26548088473344E-16));
#754=CARTESIAN_POINT('',(36.8320727422538,17.5,-2.44929359829471E-16));
#755=CARTESIAN_POINT('',(38.8320727422538,5.39096466307919,-2.));
#756=CARTESIAN_POINT('Ctrl Pts',(38.8320727422538,5.39096466307919,-2.));
#757=CARTESIAN_POINT('Ctrl Pts',(38.5785694644359,5.39096466307919,-2.));
#758=CARTESIAN_POINT('Ctrl Pts',(38.3097843479759,5.41072700728015,-1.9489013148238));
#759=CARTESIAN_POINT('Ctrl Pts',(37.8177520853235,5.48014841072624,-1.74417770189743));
#760=CARTESIAN_POINT('Ctrl Pts',(37.5942955413975,5.52860442972698,-1.59064992388989));
#761=CARTESIAN_POINT('Ctrl Pts',(37.2415208167815,5.6181191082517,-1.23787519927384));
#762=CARTESIAN_POINT('Ctrl Pts',(37.0879178104624,5.66526200622096,-1.01438000171678));
#763=CARTESIAN_POINT('Ctrl Pts',(36.8831378150489,5.73161970330363,-0.522202990958289));
#764=CARTESIAN_POINT('Ctrl Pts',(36.8320727422538,5.74999999987553,-0.253362473961789));
#765=CARTESIAN_POINT('Ctrl Pts',(36.8320727422538,5.74999999987553,-1.38777878078145E-16));
#766=CARTESIAN_POINT('Ctrl Pts',(36.8320727422538,5.74999999987553,2.77555756156289E-16));
#767=CARTESIAN_POINT('Ctrl Pts',(36.8320727422538,5.74999999987553,0.253362473961789));
#768=CARTESIAN_POINT('Ctrl Pts',(36.8831378150489,5.73161970330363,0.522202990958289));
#769=CARTESIAN_POINT('Ctrl Pts',(37.0879178104624,5.66526200622096,1.01438000171678));
#770=CARTESIAN_POINT('Ctrl Pts',(37.2415208167815,5.6181191082517,1.23787519927384));
#771=CARTESIAN_POINT('Ctrl Pts',(37.5942955413975,5.52860442972698,1.59064992388989));
#772=CARTESIAN_POINT('Ctrl Pts',(37.8177520853235,5.48014841072624,1.74417770189743));
#773=CARTESIAN_POINT('Ctrl Pts',(38.3097843479759,5.41072700728015,1.9489013148238));
#774=CARTESIAN_POINT('Ctrl Pts',(38.5785694644359,5.39096466307919,2.));
#775=CARTESIAN_POINT('Ctrl Pts',(39.0855760200718,5.39096466307919,2.));
#776=CARTESIAN_POINT('Ctrl Pts',(39.3543611365318,5.41072700728015,1.9489013148238));
#777=CARTESIAN_POINT('Ctrl Pts',(39.8463933991842,5.48014841072624,1.74417770189742));
#778=CARTESIAN_POINT('Ctrl Pts',(40.0698499431101,5.52860442972698,1.59064992388989));
#779=CARTESIAN_POINT('Ctrl Pts',(40.4226246677262,5.6181191082517,1.23787519927384));
#780=CARTESIAN_POINT('Ctrl Pts',(40.5762276740453,5.66526200622096,1.01438000171677));
#781=CARTESIAN_POINT('Ctrl Pts',(40.7810076694587,5.73161970330363,0.522202990958282));
#782=CARTESIAN_POINT('Ctrl Pts',(40.8320727422538,5.74999999987553,0.253362473961789));
#783=CARTESIAN_POINT('Ctrl Pts',(40.8320727422538,5.74999999987553,-0.253362473961788));
#784=CARTESIAN_POINT('Ctrl Pts',(40.7810076694587,5.73161970330363,-0.522202990958281));
#785=CARTESIAN_POINT('Ctrl Pts',(40.5762276740453,5.66526200622096,-1.01438000171677));
#786=CARTESIAN_POINT('Ctrl Pts',(40.4226246677262,5.6181191082517,-1.23787519927384));
#787=CARTESIAN_POINT('Ctrl Pts',(40.0698499431101,5.52860442972698,-1.59064992388989));
#788=CARTESIAN_POINT('Ctrl Pts',(39.8463933991842,5.48014841072624,-1.74417770189743));
#789=CARTESIAN_POINT('Ctrl Pts',(39.3543611365318,5.41072700728015,-1.9489013148238));
#790=CARTESIAN_POINT('Ctrl Pts',(39.0855760200718,5.39096466307919,-2.));
#791=CARTESIAN_POINT('Ctrl Pts',(38.8320727422538,5.39096466307919,-2.));
#792=CARTESIAN_POINT('Origin',(-7.49999999999765,4.41548424664266E-17,0.));
#793=CARTESIAN_POINT('',(0.0419549814545739,-7.45000000000337,9.12361865365191E-16));
#794=CARTESIAN_POINT('Origin',(0.0419549814545739,-1.39533148464182E-17,
0.));
#795=CARTESIAN_POINT('',(-15.,-7.45000000000337,9.12361865365191E-16));
#796=CARTESIAN_POINT('',(-7.49999999999765,-7.45000000000337,-9.12361865365191E-16));
#797=CARTESIAN_POINT('Origin',(-15.,1.01939751143057E-16,0.));
#798=CARTESIAN_POINT('Origin',(-15.,17.5,0.));
#799=CARTESIAN_POINT('',(-15.,-17.5,-2.14313189850787E-15));
#800=CARTESIAN_POINT('Origin',(-15.,1.01939751143057E-16,0.));
#801=CARTESIAN_POINT('Origin',(22.6502485484581,-1.8814240539353E-16,0.));
#802=CARTESIAN_POINT('',(60.3004970969163,-17.5,-2.14313189850787E-15));
#803=CARTESIAN_POINT('Origin',(60.3004970969163,-4.78224561930116E-16,0.));
#804=CARTESIAN_POINT('',(22.6502485484581,-17.5,-2.14313189850787E-15));
#805=CARTESIAN_POINT('Origin',(60.3004970969163,7.50000000000002,0.));
#806=CARTESIAN_POINT('',(60.3004970969163,-7.44999999989742,-9.12361865352216E-16));
#807=CARTESIAN_POINT('Origin',(60.3004970969163,-4.78224561930116E-16,0.));
#808=CARTESIAN_POINT('Origin',(52.8004970969186,-4.20439653253522E-16,0.));
#809=CARTESIAN_POINT('',(45.2585421154432,-7.44999999989742,-9.12361865352216E-16));
#810=CARTESIAN_POINT('',(52.8004970969186,-7.44999999989742,-9.12361865352216E-16));
#811=CARTESIAN_POINT('Origin',(45.2585421154432,-3.62331495940499E-16,0.));
#812=CARTESIAN_POINT('Origin',(44.5662849195875,-3.56997893428066E-16,0.));
#813=CARTESIAN_POINT('',(43.8320727422541,-5.74999999987498,-7.04171909494417E-16));
#814=CARTESIAN_POINT('',(44.5662849195875,-6.6249999998349,-8.11328504414902E-16));
#815=CARTESIAN_POINT('Origin',(43.8320727422541,-3.51341042279203E-16,0.));
#816=CARTESIAN_POINT('Origin',(38.8320727422538,-3.12817769828126E-16,0.));
#817=CARTESIAN_POINT('',(33.8320727422536,-5.74999999987553,-7.04171909494485E-16));
#818=CARTESIAN_POINT('',(38.8320727422538,-5.74999999987553,-7.04171909494485E-16));
#819=CARTESIAN_POINT('Origin',(33.8320727422536,-2.7429449737705E-16,0.));
#820=CARTESIAN_POINT('Origin',(30.741160645357,-2.50480087610836E-16,0.));
#821=CARTESIAN_POINT('',(27.6502485484605,-3.49999999999998,-4.28626379701571E-16));
#822=CARTESIAN_POINT('',(30.741160645357,-4.62499999993803,-5.66399144598061E-16));
#823=CARTESIAN_POINT('Origin',(27.6502485484605,-2.26665677844623E-16,0.));
#824=CARTESIAN_POINT('Origin',(22.6502485484605,-1.88142405393548E-16,0.));
#825=CARTESIAN_POINT('',(17.6502485484605,-3.49999999999998,-4.28626379701571E-16));
#826=CARTESIAN_POINT('',(22.6502485484605,-3.49999999999998,-4.28626379701571E-16));
#827=CARTESIAN_POINT('Origin',(17.6502485484605,-1.49619132942473E-16,0.));
#828=CARTESIAN_POINT('Origin',(14.5593364515639,-1.2580472317626E-16,0.));
#829=CARTESIAN_POINT('',(11.4684243546674,-5.74999999987547,-7.04171909494477E-16));
#830=CARTESIAN_POINT('',(14.5593364515639,-4.62499999993771,-5.66399144598023E-16));
#831=CARTESIAN_POINT('Origin',(11.4684243546674,-1.01990313410046E-16,0.));
#832=CARTESIAN_POINT('Origin',(6.46842435466739,-6.34670409589712E-17,0.));
#833=CARTESIAN_POINT('',(1.46842435466739,-5.7499999998749,-7.04171909494408E-16));
#834=CARTESIAN_POINT('',(6.46842435466739,-5.7499999998749,-7.04171909494408E-16));
#835=CARTESIAN_POINT('Origin',(1.46842435466739,-2.49437685078965E-17,0.));
#836=CARTESIAN_POINT('Origin',(0.734212177333697,-1.92869173590319E-17,
0.));
#837=CARTESIAN_POINT('',(0.734212177333697,-6.6249999998749,-8.11328504419801E-16));
#838=CARTESIAN_POINT('',(0.,0.,0.));
#839=CARTESIAN_POINT('',(0.,0.,0.));
#840=CARTESIAN_POINT('Origin',(0.,0.,0.));
#841=UNCERTAINTY_MEASURE_WITH_UNIT(LENGTH_MEASURE(0.01),#847,
'DISTANCE_ACCURACY_VALUE',
'Maximum model space distance between geometric entities at asserted c
onnectivities');
#842=UNCERTAINTY_MEASURE_WITH_UNIT(LENGTH_MEASURE(0.01),#847,
'DISTANCE_ACCURACY_VALUE',
'Maximum model space distance between geometric entities at asserted c
onnectivities');
#843=UNCERTAINTY_MEASURE_WITH_UNIT(LENGTH_MEASURE(0.01),#847,
'DISTANCE_ACCURACY_VALUE',
'Maximum model space distance between geometric entities at asserted c
onnectivities');
#844=(
GEOMETRIC_REPRESENTATION_CONTEXT(3)
GLOBAL_UNCERTAINTY_ASSIGNED_CONTEXT((#841))
GLOBAL_UNIT_ASSIGNED_CONTEXT((#847,#849,#850))
REPRESENTATION_CONTEXT('','3D')
);
#845=(
GEOMETRIC_REPRESENTATION_CONTEXT(3)
GLOBAL_UNCERTAINTY_ASSIGNED_CONTEXT((#842))
GLOBAL_UNIT_ASSIGNED_CONTEXT((#847,#849,#850))
REPRESENTATION_CONTEXT('','3D')
);
#846=(
GEOMETRIC_REPRESENTATION_CONTEXT(3)
GLOBAL_UNCERTAINTY_ASSIGNED_CONTEXT((#843))
GLOBAL_UNIT_ASSIGNED_CONTEXT((#847,#849,#850))
REPRESENTATION_CONTEXT('','3D')
);
#847=(
LENGTH_UNIT()
NAMED_UNIT(*)
SI_UNIT(.MILLI.,.METRE.)
);
#848=(
LENGTH_UNIT()
NAMED_UNIT(*)
SI_UNIT($,.METRE.)
);
#849=(
NAMED_UNIT(*)
PLANE_ANGLE_UNIT()
SI_UNIT($,.RADIAN.)
);
#850=(
NAMED_UNIT(*)
SI_UNIT($,.STERADIAN.)
SOLID_ANGLE_UNIT()
);
#851=SHAPE_DEFINITION_REPRESENTATION(#853,#857);
#852=SHAPE_DEFINITION_REPRESENTATION(#854,#858);
#853=PRODUCT_DEFINITION_SHAPE('',$,#860);
#854=PRODUCT_DEFINITION_SHAPE('',$,#861);
#855=PRODUCT_DEFINITION_SHAPE($,$,#21);
#856=PRODUCT_DEFINITION_SHAPE($,$,#22);
#857=SHAPE_REPRESENTATION('',(#379,#421,#422),#844);
#858=SHAPE_REPRESENTATION('',(#380),#845);
#859=PRODUCT_DEFINITION_CONTEXT('part definition',#867,'design');
#860=PRODUCT_DEFINITION('Untitled','Untitled v5',#862,#859);
#861=PRODUCT_DEFINITION('Component1','Component1',#863,#859);
#862=PRODUCT_DEFINITION_FORMATION('',$,#869);
#863=PRODUCT_DEFINITION_FORMATION('',$,#870);
#864=PRODUCT_RELATED_PRODUCT_CATEGORY('Untitled v5','Untitled v5',(#869));
#865=PRODUCT_RELATED_PRODUCT_CATEGORY('Component1','Component1',(#870));
#866=APPLICATION_PROTOCOL_DEFINITION('international standard',
'automotive_design',2009,#867);
#867=APPLICATION_CONTEXT(
'Core Data for Automotive Mechanical Design Process');
#868=PRODUCT_CONTEXT('part definition',#867,'mechanical');
#869=PRODUCT('Untitled','Untitled v5',$,(#868));
#870=PRODUCT('Component1','Component1',$,(#868));
#871=PRESENTATION_STYLE_ASSIGNMENT((#874));
#872=PRESENTATION_STYLE_ASSIGNMENT((#875));
#873=PRESENTATION_STYLE_ASSIGNMENT((NULL_STYLE(.NULL.)));
#874=SURFACE_STYLE_USAGE(.BOTH.,#876);
#875=SURFACE_STYLE_USAGE(.BOTH.,#877);
#876=SURFACE_SIDE_STYLE('',(#878));
#877=SURFACE_SIDE_STYLE('',(#879));
#878=SURFACE_STYLE_FILL_AREA(#880);
#879=SURFACE_STYLE_FILL_AREA(#881);
#880=FILL_AREA_STYLE('Copper - Patina',(#882));
#881=FILL_AREA_STYLE('Paint - Enamel Glossy (Red)',(#883));
#882=FILL_AREA_STYLE_COLOUR('Copper - Patina',#884);
#883=FILL_AREA_STYLE_COLOUR('Paint - Enamel Glossy (Red)',#885);
#884=COLOUR_RGB('Copper - Patina',0.929411764705882,0.807843137254902,0.764705882352941);
#885=COLOUR_RGB('Paint - Enamel Glossy (Red)',0.768627450980392,0.207843137254902,
0.152941176470588);
ENDSEC;
END-ISO-10303-21;
